EESchema Schematic File Version 4
LIBS:proj-cache
EELAYER 26 0
EELAYER END
$Descr A4 11693 8268
encoding utf-8
Sheet 1 1
Title ""
Date ""
Rev ""
Comp ""
Comment1 ""
Comment2 ""
Comment3 ""
Comment4 ""
$EndDescr
$Comp
L proj-rescue:TLV61220-TLV61220 U1
U 1 1 5AD4702A
P 3050 1500
F 0 "U1" H 3050 1400 50  0000 C CNN
F 1 "TLV61220" H 3050 1750 50  0000 C CNN
F 2 "TO_SOT_Packages_SMD:SOT-23-6" H 3050 1500 50  0001 C CNN
F 3 "DOCUMENTATION" H 3050 1500 50  0001 C CNN
	1    3050 1500
	1    0    0    -1  
$EndComp
$Comp
L Device:L L1
U 1 1 5AD470C5
P 2150 1400
F 0 "L1" V 2100 1400 50  0000 C CNN
F 1 "4.7uH" V 2225 1400 50  0000 C CNN
F 2 "footprints:EPL3010" H 2150 1400 50  0001 C CNN
F 3 "" H 2150 1400 50  0001 C CNN
	1    2150 1400
	0    -1   -1   0   
$EndComp
$Comp
L power:GND #PWR01
U 1 1 5AD47157
P 2350 2050
F 0 "#PWR01" H 2350 1800 50  0001 C CNN
F 1 "GND" H 2350 1900 50  0000 C CNN
F 2 "" H 2350 2050 50  0001 C CNN
F 3 "" H 2350 2050 50  0001 C CNN
	1    2350 2050
	1    0    0    -1  
$EndComp
$Comp
L Device:C C1
U 1 1 5AD4717D
P 4150 1300
F 0 "C1" H 4050 1400 50  0000 L CNN
F 1 "10uF" H 3950 1200 50  0000 L CNN
F 2 "Capacitors_SMD:C_0805" H 4188 1150 50  0001 C CNN
F 3 "" H 4150 1300 50  0001 C CNN
	1    4150 1300
	1    0    0    -1  
$EndComp
$Comp
L power:VCC #PWR02
U 1 1 5AD4726A
P 3750 950
F 0 "#PWR02" H 3750 800 50  0001 C CNN
F 1 "VCC" H 3750 1100 50  0000 C CNN
F 2 "" H 3750 950 50  0001 C CNN
F 3 "" H 3750 950 50  0001 C CNN
	1    3750 950 
	1    0    0    -1  
$EndComp
$Comp
L power:+3V3 #PWR03
U 1 1 5AD472AD
P 5150 1300
F 0 "#PWR03" H 5150 1150 50  0001 C CNN
F 1 "+3V3" H 5150 1440 50  0000 C CNN
F 2 "" H 5150 1300 50  0001 C CNN
F 3 "" H 5150 1300 50  0001 C CNN
	1    5150 1300
	1    0    0    -1  
$EndComp
$Comp
L Device:C C2
U 1 1 5AD472DD
P 4300 1800
F 0 "C2" H 4325 1900 50  0000 L CNN
F 1 "10uF" H 4325 1700 50  0000 L CNN
F 2 "Capacitors_SMD:C_0805" H 4338 1650 50  0001 C CNN
F 3 "" H 4300 1800 50  0001 C CNN
	1    4300 1800
	1    0    0    -1  
$EndComp
$Comp
L Device:R R2
U 1 1 5AD47335
P 3750 1800
F 0 "R2" V 3830 1800 50  0000 C CNN
F 1 "102k" V 3750 1800 50  0000 C CNN
F 2 "Resistors_SMD:R_0805" V 3680 1800 50  0001 C CNN
F 3 "" H 3750 1800 50  0001 C CNN
	1    3750 1800
	-1   0    0    1   
$EndComp
$Comp
L Device:R R1
U 1 1 5AD473EA
P 3950 1600
F 0 "R1" V 4030 1600 50  0000 C CNN
F 1 "1M" V 3950 1600 50  0000 C CNN
F 2 "Resistors_SMD:R_0805" V 3880 1600 50  0001 C CNN
F 3 "" H 3950 1600 50  0001 C CNN
	1    3950 1600
	0    1    1    0   
$EndComp
$Comp
L proj-rescue:74LVC8T245-74LVC8T245 U3
U 1 1 5AD47ABE
P 4350 3550
F 0 "U3" H 4350 3450 50  0000 C CNN
F 1 "74LVC8T245" H 4350 3650 50  0000 C CNN
F 2 "Housings_SSOP:TSSOP-24_4.4x7.8mm_Pitch0.65mm" H 4350 3550 50  0001 C CNN
F 3 "DOCUMENTATION" H 4350 3550 50  0001 C CNN
	1    4350 3550
	1    0    0    -1  
$EndComp
$Comp
L proj-rescue:74LVC8T245-74LVC8T245 U4
U 1 1 5AD47B8E
P 4350 5050
F 0 "U4" H 4350 4950 50  0000 C CNN
F 1 "74LVC8T245" H 4350 5150 50  0000 C CNN
F 2 "Housings_SSOP:TSSOP-24_4.4x7.8mm_Pitch0.65mm" H 4350 5050 50  0001 C CNN
F 3 "DOCUMENTATION" H 4350 5050 50  0001 C CNN
	1    4350 5050
	1    0    0    -1  
$EndComp
$Comp
L Device:C C3
U 1 1 5AD47E0B
P 5150 1750
F 0 "C3" H 5175 1850 50  0000 L CNN
F 1 "10uF" H 5175 1650 50  0000 L CNN
F 2 "Capacitors_SMD:C_0805" H 5188 1600 50  0001 C CNN
F 3 "" H 5150 1750 50  0001 C CNN
	1    5150 1750
	1    0    0    -1  
$EndComp
$Comp
L power:+3V3 #PWR04
U 1 1 5AD47FB4
P 1500 5200
F 0 "#PWR04" H 1500 5050 50  0001 C CNN
F 1 "+3V3" H 1500 5340 50  0000 C CNN
F 2 "" H 1500 5200 50  0001 C CNN
F 3 "" H 1500 5200 50  0001 C CNN
	1    1500 5200
	1    0    0    -1  
$EndComp
$Comp
L power:VCC #PWR05
U 1 1 5AD48041
P 5200 2850
F 0 "#PWR05" H 5200 2700 50  0001 C CNN
F 1 "VCC" H 5200 3000 50  0000 C CNN
F 2 "" H 5200 2850 50  0001 C CNN
F 3 "" H 5200 2850 50  0001 C CNN
	1    5200 2850
	1    0    0    -1  
$EndComp
$Comp
L power:GND #PWR06
U 1 1 5AD4832C
P 3450 5850
F 0 "#PWR06" H 3450 5600 50  0001 C CNN
F 1 "GND" H 3450 5700 50  0000 C CNN
F 2 "" H 3450 5850 50  0001 C CNN
F 3 "" H 3450 5850 50  0001 C CNN
	1    3450 5850
	1    0    0    -1  
$EndComp
$Comp
L Device:R R5
U 1 1 5AD49781
P 2650 2850
F 0 "R5" V 2730 2850 50  0000 C CNN
F 1 "R" V 2650 2850 50  0000 C CNN
F 2 "Resistors_SMD:R_0805" V 2580 2850 50  0001 C CNN
F 3 "" H 2650 2850 50  0001 C CNN
	1    2650 2850
	1    0    0    -1  
$EndComp
$Comp
L Device:R R6
U 1 1 5AD4993A
P 3000 2850
F 0 "R6" V 3080 2850 50  0000 C CNN
F 1 "R" V 3000 2850 50  0000 C CNN
F 2 "Resistors_SMD:R_0805" V 2930 2850 50  0001 C CNN
F 3 "" H 3000 2850 50  0001 C CNN
	1    3000 2850
	1    0    0    -1  
$EndComp
$Comp
L Device:R R4
U 1 1 5AD4A4EA
P 2300 2850
F 0 "R4" V 2380 2850 50  0000 C CNN
F 1 "R" V 2300 2850 50  0000 C CNN
F 2 "Resistors_SMD:R_0805" V 2230 2850 50  0001 C CNN
F 3 "" H 2300 2850 50  0001 C CNN
	1    2300 2850
	1    0    0    -1  
$EndComp
$Comp
L Device:R R3
U 1 1 5AD4A566
P 1950 2850
F 0 "R3" V 2030 2850 50  0000 C CNN
F 1 "R" V 1950 2850 50  0000 C CNN
F 2 "Resistors_SMD:R_0805" V 1880 2850 50  0001 C CNN
F 3 "" H 1950 2850 50  0001 C CNN
	1    1950 2850
	1    0    0    -1  
$EndComp
$Comp
L power:VCC #PWR07
U 1 1 5AD4BC2C
P 1150 2000
F 0 "#PWR07" H 1150 1850 50  0001 C CNN
F 1 "VCC" H 1150 2150 50  0000 C CNN
F 2 "" H 1150 2000 50  0001 C CNN
F 3 "" H 1150 2000 50  0001 C CNN
	1    1150 2000
	1    0    0    -1  
$EndComp
$Comp
L power:+3V3 #PWR08
U 1 1 5AD4BC7C
P 1350 2000
F 0 "#PWR08" H 1350 1850 50  0001 C CNN
F 1 "+3V3" H 1350 2140 50  0000 C CNN
F 2 "" H 1350 2000 50  0001 C CNN
F 3 "" H 1350 2000 50  0001 C CNN
	1    1350 2000
	1    0    0    -1  
$EndComp
$Comp
L power:GND #PWR09
U 1 1 5AD4BCCC
P 1250 2600
F 0 "#PWR09" H 1250 2350 50  0001 C CNN
F 1 "GND" H 1250 2450 50  0000 C CNN
F 2 "" H 1250 2600 50  0001 C CNN
F 3 "" H 1250 2600 50  0001 C CNN
	1    1250 2600
	1    0    0    -1  
$EndComp
$Comp
L Regulator_Linear:LD1117S33TR_SOT223 U2
U 1 1 5AD9BAF3
P 4700 1500
F 0 "U2" H 4550 1625 50  0000 C CNN
F 1 "LD1117S33TR_SOT223" H 4700 1625 50  0000 L CNN
F 2 "TO_SOT_Packages_SMD:SOT-223-3_TabPin2" H 4700 1700 50  0001 C CNN
F 3 "" H 4800 1250 50  0001 C CNN
	1    4700 1500
	1    0    0    -1  
$EndComp
Wire Wire Line
	2300 1400 2400 1400
Wire Wire Line
	1950 1100 3750 1100
Wire Wire Line
	3750 950  3750 1100
Wire Wire Line
	3750 1400 3700 1400
Wire Wire Line
	1950 1600 2400 1600
Wire Wire Line
	1950 1100 1950 1400
Wire Wire Line
	2000 1400 1950 1400
Connection ~ 1950 1400
Wire Wire Line
	2350 1500 2350 2000
Wire Wire Line
	2350 1500 2400 1500
Connection ~ 3750 1100
Wire Wire Line
	3700 1500 4300 1500
Wire Wire Line
	4300 1500 4300 1600
Wire Wire Line
	3700 1600 3750 1600
Wire Wire Line
	3750 1650 3750 1600
Connection ~ 3750 1600
Wire Wire Line
	4150 1100 4150 1150
Wire Wire Line
	4300 1600 4100 1600
Connection ~ 4300 1600
Wire Wire Line
	4300 2000 4300 1950
Wire Wire Line
	2350 2000 3750 2000
Connection ~ 2350 2000
Wire Wire Line
	3750 2000 3750 1950
Connection ~ 3750 2000
Wire Wire Line
	4150 1450 4150 2000
Connection ~ 4150 2000
Connection ~ 4300 1500
Wire Wire Line
	4700 2000 4700 1800
Connection ~ 4300 2000
Wire Wire Line
	5150 2000 5150 1900
Connection ~ 4700 2000
Wire Wire Line
	5000 1500 5150 1500
Connection ~ 5150 1500
Wire Wire Line
	3500 3000 3600 3000
Wire Wire Line
	3500 4500 3600 4500
Connection ~ 3500 3000
Wire Wire Line
	5100 3000 5200 3000
Wire Wire Line
	5200 2850 5200 3000
Wire Wire Line
	5200 3100 5100 3100
Connection ~ 5200 3000
Wire Wire Line
	5200 4500 5100 4500
Connection ~ 5200 3100
Wire Wire Line
	5200 4600 5100 4600
Connection ~ 5200 4500
Wire Wire Line
	3600 4000 3450 4000
Wire Wire Line
	3450 4000 3450 4100
Wire Wire Line
	3450 5500 3600 5500
Wire Wire Line
	3600 4100 3450 4100
Connection ~ 3450 4100
Wire Wire Line
	1950 5600 2050 5600
Connection ~ 3450 5500
Connection ~ 3450 5600
Wire Wire Line
	5100 4100 5250 4100
Wire Wire Line
	5250 4100 5250 5600
Wire Wire Line
	5250 5600 5100 5600
Wire Wire Line
	5250 5800 3450 5800
Connection ~ 3450 5800
Connection ~ 5250 5600
Wire Wire Line
	2950 3200 3600 3200
Wire Wire Line
	2950 3300 3600 3300
Wire Wire Line
	2950 3400 3600 3400
Wire Wire Line
	2950 3500 3600 3500
Wire Wire Line
	2950 3600 3600 3600
Wire Wire Line
	2950 3700 3600 3700
Wire Wire Line
	2950 3800 3600 3800
Wire Wire Line
	2950 3900 3600 3900
Wire Wire Line
	3400 4700 3600 4700
Wire Wire Line
	3350 4800 3600 4800
Wire Wire Line
	3300 4900 3600 4900
Wire Wire Line
	3250 5000 3600 5000
Wire Wire Line
	3200 5100 3600 5100
Wire Wire Line
	3150 5200 3600 5200
Wire Wire Line
	3050 5300 3600 5300
Wire Wire Line
	3000 5400 3600 5400
Wire Wire Line
	5100 5500 5650 5500
Wire Wire Line
	5100 5400 5600 5400
Wire Wire Line
	5100 5300 5550 5300
Wire Wire Line
	5100 5200 5500 5200
Wire Wire Line
	5100 5100 5450 5100
Wire Wire Line
	5100 5000 5400 5000
Wire Wire Line
	5100 4900 5350 4900
Wire Wire Line
	5100 4800 5300 4800
Wire Wire Line
	5100 4000 5700 4000
Wire Wire Line
	5100 3900 5700 3900
Wire Wire Line
	5100 3800 5700 3800
Wire Wire Line
	5100 3700 5700 3700
Wire Wire Line
	5100 3600 5700 3600
Wire Wire Line
	5100 3500 5700 3500
Wire Wire Line
	5100 3400 5700 3400
Wire Wire Line
	5100 3300 5700 3300
Wire Wire Line
	5100 4700 5150 4700
Wire Wire Line
	5150 4700 5150 4350
Wire Wire Line
	5150 4250 5150 3200
Wire Wire Line
	5150 3200 5100 3200
Wire Wire Line
	3000 3000 3000 4050
Wire Wire Line
	2250 4600 2500 4600
Wire Wire Line
	3100 4600 3600 4600
Wire Wire Line
	2650 3000 2650 3100
Wire Wire Line
	2150 3100 2650 3100
Connection ~ 2650 3100
Wire Wire Line
	2650 2650 2650 2700
Wire Wire Line
	1950 2650 2300 2650
Wire Wire Line
	3000 2650 3000 2700
Connection ~ 3000 2650
Wire Wire Line
	1950 5300 1950 5600
Wire Wire Line
	1950 2700 1950 2650
Connection ~ 2650 2650
Wire Wire Line
	2300 2700 2300 2650
Connection ~ 2300 2650
Wire Wire Line
	1950 3000 1950 4350
Wire Wire Line
	2300 3000 2300 4250
Wire Wire Line
	2050 4250 2300 4250
Connection ~ 2300 4250
Wire Wire Line
	5150 4350 1950 4350
Connection ~ 1950 4350
Wire Wire Line
	1050 2100 1150 2100
Wire Wire Line
	1150 2100 1150 2000
Wire Wire Line
	1050 2200 1250 2200
Wire Wire Line
	1250 2200 1250 2300
Wire Wire Line
	2050 4800 2050 4250
Wire Wire Line
	2150 4800 2150 3100
Wire Wire Line
	2250 4800 2250 4600
Wire Wire Line
	2050 5300 2050 5600
Connection ~ 2050 5600
Wire Wire Line
	2150 5300 2150 5600
Connection ~ 2150 5600
Wire Wire Line
	2250 5300 2250 5600
Connection ~ 2250 5600
$Comp
L Connector_Generic:Conn_01x16 J2
U 1 1 5AD9BCFF
P 5900 4000
F 0 "J2" H 5900 4800 50  0000 C CNN
F 1 "Conn_01x16" V 6000 4000 50  0000 C CNN
F 2 "Pin_Headers:Pin_Header_Straight_1x16_Pitch2.54mm" H 5900 4000 50  0001 C CNN
F 3 "" H 5900 4000 50  0001 C CNN
	1    5900 4000
	1    0    0    -1  
$EndComp
$Comp
L Connector_Generic:Conn_01x16 J1
U 1 1 5AD9BDBA
P 2750 3900
F 0 "J1" H 2750 4700 50  0000 C CNN
F 1 "Conn_01x16" H 2750 3000 50  0000 C CNN
F 2 "Pin_Headers:Pin_Header_Straight_1x16_Pitch2.54mm" H 2750 3900 50  0001 C CNN
F 3 "" H 2750 3900 50  0001 C CNN
	1    2750 3900
	-1   0    0    -1  
$EndComp
Wire Wire Line
	5300 4800 5300 4100
Wire Wire Line
	5300 4100 5700 4100
Wire Wire Line
	5350 4900 5350 4200
Wire Wire Line
	5350 4200 5700 4200
Wire Wire Line
	5400 5000 5400 4300
Wire Wire Line
	5400 4300 5700 4300
Wire Wire Line
	5450 5100 5450 4400
Wire Wire Line
	5450 4400 5700 4400
Wire Wire Line
	5500 5200 5500 4500
Wire Wire Line
	5500 4500 5700 4500
Wire Wire Line
	5550 5300 5550 4600
Wire Wire Line
	5550 4600 5700 4600
Wire Wire Line
	5600 5400 5600 4700
Wire Wire Line
	5600 4700 5700 4700
Wire Wire Line
	5650 5500 5650 4800
Wire Wire Line
	5650 4800 5700 4800
Wire Wire Line
	2950 4000 3400 4000
Wire Wire Line
	3400 4000 3400 4700
Wire Wire Line
	3350 4800 3350 4100
Wire Wire Line
	3350 4100 2950 4100
Wire Wire Line
	2950 4200 3300 4200
Wire Wire Line
	3300 4200 3300 4900
Wire Wire Line
	2950 4300 3250 4300
Wire Wire Line
	3250 4300 3250 5000
Wire Wire Line
	2950 4400 3200 4400
Wire Wire Line
	3200 4400 3200 5100
Wire Wire Line
	2950 4500 3150 4500
Wire Wire Line
	3150 4500 3150 5200
Wire Wire Line
	2500 4600 2500 4050
Wire Wire Line
	2500 4050 3000 4050
Connection ~ 3000 4050
Wire Wire Line
	3100 4050 3100 4600
Wire Wire Line
	3050 5300 3050 4600
Wire Wire Line
	3050 4600 2950 4600
Wire Wire Line
	2950 4700 3000 4700
Wire Wire Line
	3000 4700 3000 5400
$Comp
L Device:R R7
U 1 1 5B1114DE
P 4700 1100
F 0 "R7" V 4780 1100 50  0000 C CNN
F 1 "R" V 4700 1100 50  0000 C CNN
F 2 "Resistors_SMD:R_0805" V 4630 1100 50  0001 C CNN
F 3 "" H 4700 1100 50  0001 C CNN
	1    4700 1100
	0    1    1    0   
$EndComp
$Comp
L Device:LED D1
U 1 1 5B111585
P 5700 1550
F 0 "D1" H 5700 1650 50  0000 C CNN
F 1 "LED" H 5700 1450 50  0000 C CNN
F 2 "LEDs:LED_0805" H 5700 1550 50  0001 C CNN
F 3 "" H 5700 1550 50  0001 C CNN
	1    5700 1550
	0    -1   -1   0   
$EndComp
Connection ~ 5150 2000
Wire Wire Line
	1950 1400 1950 1600
Wire Wire Line
	3750 1100 4150 1100
Wire Wire Line
	3750 1100 3750 1400
Wire Wire Line
	3750 1600 3800 1600
Wire Wire Line
	4300 1600 4300 1650
Wire Wire Line
	2350 2000 2350 2050
Wire Wire Line
	3750 2000 4150 2000
Wire Wire Line
	4150 2000 4300 2000
Wire Wire Line
	4300 1500 4400 1500
Wire Wire Line
	4300 2000 4700 2000
Wire Wire Line
	4700 2000 5150 2000
Wire Wire Line
	5150 1500 5150 1600
Wire Wire Line
	3500 3000 3500 4500
Wire Wire Line
	5200 3000 5200 3100
Wire Wire Line
	5200 3100 5200 4500
Wire Wire Line
	5200 4500 5200 4600
Wire Wire Line
	3450 4100 3450 5500
Wire Wire Line
	3450 5500 3450 5600
Wire Wire Line
	3450 5600 3600 5600
Wire Wire Line
	3450 5600 3450 5800
Wire Wire Line
	3450 5800 3450 5850
Wire Wire Line
	5250 5600 5250 5800
Wire Wire Line
	2650 3100 3600 3100
Wire Wire Line
	3500 2650 3500 3000
Wire Wire Line
	3000 2650 3500 2650
Wire Wire Line
	2650 2650 3000 2650
Wire Wire Line
	2300 2650 2650 2650
Wire Wire Line
	2300 4250 5150 4250
Wire Wire Line
	1950 4350 1950 4800
Wire Wire Line
	2050 5600 2150 5600
Wire Wire Line
	2150 5600 2250 5600
Wire Wire Line
	2250 5600 3450 5600
Wire Wire Line
	3000 4050 3100 4050
Wire Wire Line
	5150 2000 5700 2000
Wire Wire Line
	5150 1300 5150 1500
Wire Wire Line
	4550 1100 4300 1100
Wire Wire Line
	4300 1100 4300 1500
Wire Wire Line
	4850 1100 5700 1100
Wire Wire Line
	5700 1100 5700 1400
Wire Wire Line
	5700 1700 5700 2000
Wire Wire Line
	1850 4800 1850 2650
Wire Wire Line
	1850 2650 1950 2650
Connection ~ 1950 2650
Wire Wire Line
	1850 5300 1850 5500
Wire Wire Line
	1850 5500 1500 5500
Wire Wire Line
	1500 5200 1500 5500
$Comp
L Connector_Generic:Conn_02x05_Odd_Even J3
U 1 1 5C139008
P 2050 5000
F 0 "J3" V 2054 5280 50  0000 L CNN
F 1 "Conn_02x05_Odd_Even" V 2145 5280 50  0000 L CNN
F 2 "Connector_PinHeader_2.54mm:PinHeader_2x05_P2.54mm_Vertical" H 2050 5000 50  0001 C CNN
F 3 "~" H 2050 5000 50  0001 C CNN
	1    2050 5000
	0    1    1    0   
$EndComp
$Comp
L Connector_Generic:Conn_01x04 J4
U 1 1 5C1B64BE
P 850 2200
F 0 "J4" H 770 2517 50  0000 C CNN
F 1 "Conn_01x04" H 770 2426 50  0000 C CNN
F 2 "Connector_PinHeader_2.54mm:PinHeader_1x04_P2.54mm_Vertical" H 850 2200 50  0001 C CNN
F 3 "~" H 850 2200 50  0001 C CNN
	1    850  2200
	-1   0    0    -1  
$EndComp
Wire Wire Line
	1050 2400 1350 2400
Wire Wire Line
	1350 2400 1350 2000
Wire Wire Line
	1050 2300 1250 2300
Connection ~ 1250 2300
Wire Wire Line
	1250 2300 1250 2600
$EndSCHEMATC
