EESchema Schematic File Version 4
LIBS:sch-cache
EELAYER 26 0
EELAYER END
$Descr A3 16535 11693
encoding utf-8
Sheet 1 1
Title ""
Date ""
Rev ""
Comp ""
Comment1 ""
Comment2 ""
Comment3 ""
Comment4 ""
$EndDescr
$Comp
L MCU_Nordic:nRF52840 U1
U 1 1 5C8B5753
P 3600 6350
F 0 "U1" H 4600 3650 50  0000 C CNN
F 1 "nRF52840" H 3600 6350 50  0000 C CNN
F 2 "Package_DFN_QFN:Nordic_AQFN-73-1EP_7x7mm_P0.5mm" H 3600 3450 50  0001 C CNN
F 3 "http://infocenter.nordicsemi.com/topic/com.nordic.infocenter.nrf52/dita/nrf52/chips/nrf52840.html" H 2950 8250 50  0001 C CNN
	1    3600 6350
	1    0    0    -1  
$EndComp
Text GLabel 2250 8050 0    50   Input ~ 0
nRES
Wire Wire Line
	2250 8050 2300 8050
Text GLabel 2250 8250 0    50   Input ~ 0
SWDIO
Text GLabel 2250 8150 0    50   Input ~ 0
SWDCLK
Wire Wire Line
	2250 8150 2300 8150
Wire Wire Line
	2250 8250 2300 8250
Text GLabel 4950 8850 2    50   Input ~ 0
DP
Text GLabel 4950 8750 2    50   Input ~ 0
DM
Wire Wire Line
	4900 8750 4950 8750
Wire Wire Line
	4900 8850 4950 8850
$Comp
L Connector:USB_B_Mini J7
U 1 1 5C8B5969
P 13400 1150
F 0 "J7" H 13455 1617 50  0000 C CNN
F 1 "USB_B_Mini" H 13455 1526 50  0000 C CNN
F 2 "" H 13550 1100 50  0001 C CNN
F 3 "~" H 13550 1100 50  0001 C CNN
	1    13400 1150
	1    0    0    -1  
$EndComp
Wire Wire Line
	13300 1550 13300 1600
$Comp
L power:GND #PWR021
U 1 1 5C8B5BF9
P 13400 2300
F 0 "#PWR021" H 13400 2050 50  0001 C CNN
F 1 "GND" H 13405 2127 50  0000 C CNN
F 2 "" H 13400 2300 50  0001 C CNN
F 3 "" H 13400 2300 50  0001 C CNN
	1    13400 2300
	1    0    0    -1  
$EndComp
Text GLabel 14700 875  1    50   Input ~ 0
DP
Text GLabel 13800 1600 0    50   Input ~ 0
DM
$Comp
L power:VBUS #PWR026
U 1 1 5C8B64E8
P 15150 2500
F 0 "#PWR026" H 15150 2350 50  0001 C CNN
F 1 "VBUS" H 15165 2673 50  0000 C CNN
F 2 "" H 15150 2500 50  0001 C CNN
F 3 "" H 15150 2500 50  0001 C CNN
	1    15150 2500
	1    0    0    -1  
$EndComp
$Comp
L power:VBUS #PWR05
U 1 1 5C8B715C
P 3800 2700
F 0 "#PWR05" H 3800 2550 50  0001 C CNN
F 1 "VBUS" H 3815 2873 50  0000 C CNN
F 2 "" H 3800 2700 50  0001 C CNN
F 3 "" H 3800 2700 50  0001 C CNN
	1    3800 2700
	1    0    0    -1  
$EndComp
$Comp
L Connector_Generic:Conn_02x05_Odd_Even J5
U 1 1 5C8B789B
P 11325 1225
F 0 "J5" H 11375 1642 50  0000 C CNN
F 1 "Conn_02x05_Odd_Even" H 11375 1551 50  0000 C CNN
F 2 "" H 11325 1225 50  0001 C CNN
F 3 "~" H 11325 1225 50  0001 C CNN
	1    11325 1225
	1    0    0    -1  
$EndComp
Text GLabel 12175 1425 2    50   Input ~ 0
nRES
Wire Wire Line
	12175 1425 12075 1425
Text GLabel 12175 1025 2    50   Input ~ 0
SWDIO
Text GLabel 12175 1125 2    50   Input ~ 0
SWDCLK
Wire Wire Line
	12175 1125 12125 1125
Wire Wire Line
	12175 1025 12125 1025
$Comp
L Device:R R12
U 1 1 5C8B7CDA
P 11975 1025
F 0 "R12" V 11875 1175 50  0000 C CNN
F 1 "R" V 11975 1025 50  0000 C CNN
F 2 "" V 11905 1025 50  0001 C CNN
F 3 "~" H 11975 1025 50  0001 C CNN
	1    11975 1025
	0    1    1    0   
$EndComp
Wire Wire Line
	11625 1025 11825 1025
$Comp
L Device:R R13
U 1 1 5C8BA113
P 11975 1125
F 0 "R13" V 12075 1275 50  0000 C CNN
F 1 "R" V 11975 1125 50  0000 C CNN
F 2 "" V 11905 1125 50  0001 C CNN
F 3 "~" H 11975 1125 50  0001 C CNN
	1    11975 1125
	0    1    1    0   
$EndComp
Wire Wire Line
	11625 1125 11825 1125
$Comp
L Device:R R11
U 1 1 5C8BA988
P 11825 1425
F 0 "R11" V 11725 1575 50  0000 C CNN
F 1 "R" V 11825 1425 50  0000 C CNN
F 2 "" V 11755 1425 50  0001 C CNN
F 3 "~" H 11825 1425 50  0001 C CNN
	1    11825 1425
	0    1    1    0   
$EndComp
Wire Wire Line
	11625 1425 11675 1425
$Comp
L power:GND #PWR017
U 1 1 5C8BBF81
P 11025 2125
F 0 "#PWR017" H 11025 1875 50  0001 C CNN
F 1 "GND" H 11030 1952 50  0000 C CNN
F 2 "" H 11025 2125 50  0001 C CNN
F 3 "" H 11025 2125 50  0001 C CNN
	1    11025 2125
	1    0    0    -1  
$EndComp
Wire Wire Line
	11025 2125 11025 2075
Wire Wire Line
	11025 1125 11125 1125
Wire Wire Line
	11125 1225 11025 1225
Connection ~ 11025 1225
Wire Wire Line
	11025 1225 11025 1125
Wire Wire Line
	11125 1325 11025 1325
Connection ~ 11025 1325
Wire Wire Line
	11025 1325 11025 1225
Wire Wire Line
	11125 1425 11025 1425
Connection ~ 11025 1425
Wire Wire Line
	11025 1425 11025 1325
$Comp
L power:VDD #PWR016
U 1 1 5C8BD50F
P 10825 925
F 0 "#PWR016" H 10825 775 50  0001 C CNN
F 1 "VDD" H 10842 1098 50  0000 C CNN
F 2 "" H 10825 925 50  0001 C CNN
F 3 "" H 10825 925 50  0001 C CNN
	1    10825 925 
	1    0    0    -1  
$EndComp
Wire Wire Line
	10825 1025 11125 1025
$Comp
L Device:R R10
U 1 1 5C8BE3B3
P 10525 1325
F 0 "R10" H 10595 1371 50  0000 L CNN
F 1 "R" H 10595 1280 50  0000 L CNN
F 2 "" V 10455 1325 50  0001 C CNN
F 3 "~" H 10525 1325 50  0001 C CNN
	1    10525 1325
	1    0    0    -1  
$EndComp
Wire Wire Line
	10825 1025 10825 925 
Wire Wire Line
	10825 1575 12075 1575
Wire Wire Line
	12075 1575 12075 1425
Connection ~ 12075 1425
Wire Wire Line
	12075 1425 11975 1425
$Comp
L Device:C C21
U 1 1 5C8C0B5A
P 10825 1825
F 0 "C21" H 10675 1925 50  0000 L CNN
F 1 "C" H 10675 1725 50  0000 L CNN
F 2 "" H 10863 1675 50  0001 C CNN
F 3 "~" H 10825 1825 50  0001 C CNN
	1    10825 1825
	1    0    0    -1  
$EndComp
$Comp
L Switch:SW_Push SW1
U 1 1 5C8C0C1D
P 10525 1825
F 0 "SW1" V 10625 2075 50  0000 R CNN
F 1 "SW_Push" H 10675 1775 50  0000 R CNN
F 2 "" H 10525 2025 50  0001 C CNN
F 3 "" H 10525 2025 50  0001 C CNN
	1    10525 1825
	0    -1   -1   0   
$EndComp
Wire Wire Line
	10825 1675 10825 1575
Connection ~ 10825 1575
Wire Wire Line
	10525 1625 10525 1575
Wire Wire Line
	10525 1575 10825 1575
Wire Wire Line
	10525 2025 10525 2075
Wire Wire Line
	10525 2075 10825 2075
Connection ~ 11025 2075
Wire Wire Line
	11025 2075 11025 1425
Wire Wire Line
	10825 1975 10825 2075
Connection ~ 10825 2075
Wire Wire Line
	10825 2075 11025 2075
Wire Wire Line
	10525 1575 10525 1475
Connection ~ 10525 1575
Wire Notes Line
	10225 625  12575 625 
Wire Notes Line
	12575 625  12575 2375
Wire Notes Line
	12575 2375 10225 2375
Wire Notes Line
	10225 625  10225 2375
$Comp
L power:VBUS #PWR012
U 1 1 5C8CD051
P 8625 6800
F 0 "#PWR012" H 8625 6650 50  0001 C CNN
F 1 "VBUS" H 8640 6973 50  0000 C CNN
F 2 "" H 8625 6800 50  0001 C CNN
F 3 "" H 8625 6800 50  0001 C CNN
	1    8625 6800
	1    0    0    -1  
$EndComp
Wire Wire Line
	8625 6800 8625 6850
$Comp
L Device:C C12
U 1 1 5C8CDD9C
P 8625 7050
F 0 "C12" H 8740 7096 50  0000 L CNN
F 1 "C" H 8740 7005 50  0000 L CNN
F 2 "" H 8663 6900 50  0001 C CNN
F 3 "~" H 8625 7050 50  0001 C CNN
	1    8625 7050
	1    0    0    -1  
$EndComp
$Comp
L Device:C C13
U 1 1 5C8CDEAE
P 8975 7050
F 0 "C13" H 9090 7096 50  0000 L CNN
F 1 "C" H 9090 7005 50  0000 L CNN
F 2 "" H 9013 6900 50  0001 C CNN
F 3 "~" H 8975 7050 50  0001 C CNN
	1    8975 7050
	1    0    0    -1  
$EndComp
$Comp
L power:GND #PWR023
U 1 1 5C8CDF1D
P 13650 7675
F 0 "#PWR023" H 13650 7425 50  0001 C CNN
F 1 "GND" H 13655 7502 50  0000 C CNN
F 2 "" H 13650 7675 50  0001 C CNN
F 3 "" H 13650 7675 50  0001 C CNN
	1    13650 7675
	1    0    0    -1  
$EndComp
Wire Wire Line
	8625 7300 8625 7250
Wire Wire Line
	8625 6850 8975 6850
Wire Wire Line
	8975 6850 8975 6900
Connection ~ 8625 6850
Wire Wire Line
	8625 6850 8625 6900
Wire Wire Line
	8625 7250 8975 7250
Wire Wire Line
	8975 7250 8975 7200
Connection ~ 8625 7250
Wire Wire Line
	8625 7250 8625 7200
$Comp
L Device:C C14
U 1 1 5C8D7655
P 9325 7050
F 0 "C14" H 9440 7096 50  0000 L CNN
F 1 "C" H 9440 7005 50  0000 L CNN
F 2 "" H 9363 6900 50  0001 C CNN
F 3 "~" H 9325 7050 50  0001 C CNN
	1    9325 7050
	1    0    0    -1  
$EndComp
$Comp
L Device:C C15
U 1 1 5C8D765B
P 9675 7050
F 0 "C15" H 9790 7096 50  0000 L CNN
F 1 "C" H 9790 7005 50  0000 L CNN
F 2 "" H 9713 6900 50  0001 C CNN
F 3 "~" H 9675 7050 50  0001 C CNN
	1    9675 7050
	1    0    0    -1  
$EndComp
$Comp
L power:VDD #PWR03
U 1 1 5C8D88DD
P 3600 3150
F 0 "#PWR03" H 3600 3000 50  0001 C CNN
F 1 "VDD" H 3617 3323 50  0000 C CNN
F 2 "" H 3600 3150 50  0001 C CNN
F 3 "" H 3600 3150 50  0001 C CNN
	1    3600 3150
	1    0    0    -1  
$EndComp
$Comp
L power:VDD #PWR025
U 1 1 5C8D9D16
P 15125 7275
F 0 "#PWR025" H 15125 7125 50  0001 C CNN
F 1 "VDD" H 15142 7448 50  0000 C CNN
F 2 "" H 15125 7275 50  0001 C CNN
F 3 "" H 15125 7275 50  0001 C CNN
	1    15125 7275
	1    0    0    -1  
$EndComp
Wire Wire Line
	9675 6900 9675 6850
Wire Wire Line
	8975 7250 9325 7250
Wire Wire Line
	9325 7250 9325 7200
Connection ~ 8975 7250
Wire Wire Line
	4100 3550 4100 3500
$Comp
L Device:C C9
U 1 1 5C8E2067
P 3400 3300
F 0 "C9" H 3515 3346 50  0000 L CNN
F 1 "C" H 3515 3255 50  0000 L CNN
F 2 "" H 3438 3150 50  0001 C CNN
F 3 "~" H 3400 3300 50  0001 C CNN
	1    3400 3300
	1    0    0    -1  
$EndComp
Wire Wire Line
	3400 3550 3400 3450
$Comp
L power:GND #PWR02
U 1 1 5C8E395C
P 2350 1900
F 0 "#PWR02" H 2350 1650 50  0001 C CNN
F 1 "GND" H 2355 1727 50  0000 C CNN
F 2 "" H 2350 1900 50  0001 C CNN
F 3 "" H 2350 1900 50  0001 C CNN
	1    2350 1900
	-1   0    0    1   
$EndComp
$Comp
L Device:C C7
U 1 1 5C8E872D
P 2600 3100
F 0 "C7" V 2348 3100 50  0000 C CNN
F 1 "C" V 2439 3100 50  0000 C CNN
F 2 "" H 2638 2950 50  0001 C CNN
F 3 "~" H 2600 3100 50  0001 C CNN
	1    2600 3100
	0    1    1    0   
$EndComp
Wire Wire Line
	2800 3550 2800 3500
Wire Wire Line
	9325 7250 9675 7250
Wire Wire Line
	9675 7250 9675 7200
Connection ~ 9325 7250
Wire Wire Line
	9675 6850 10025 6850
Wire Wire Line
	10025 6850 10025 6900
Connection ~ 9675 6850
Wire Wire Line
	9675 6850 9675 6800
Wire Wire Line
	4000 3550 4000 3500
$Comp
L power:GND #PWR04
U 1 1 5C8F7C34
P 3600 9275
F 0 "#PWR04" H 3600 9025 50  0001 C CNN
F 1 "GND" H 3605 9102 50  0000 C CNN
F 2 "" H 3600 9275 50  0001 C CNN
F 3 "" H 3600 9275 50  0001 C CNN
	1    3600 9275
	1    0    0    -1  
$EndComp
$Comp
L Device:C C17
U 1 1 5C902BCE
P 10025 7050
F 0 "C17" H 10140 7096 50  0000 L CNN
F 1 "C" H 10140 7005 50  0000 L CNN
F 2 "" H 10063 6900 50  0001 C CNN
F 3 "~" H 10025 7050 50  0001 C CNN
	1    10025 7050
	1    0    0    -1  
$EndComp
$Comp
L Device:C C19
U 1 1 5C902BD4
P 10375 7050
F 0 "C19" H 10490 7096 50  0000 L CNN
F 1 "C" H 10490 7005 50  0000 L CNN
F 2 "" H 10413 6900 50  0001 C CNN
F 3 "~" H 10375 7050 50  0001 C CNN
	1    10375 7050
	1    0    0    -1  
$EndComp
$Comp
L Device:C C20
U 1 1 5C902BDA
P 10725 7050
F 0 "C20" H 10840 7096 50  0000 L CNN
F 1 "C" H 10840 7005 50  0000 L CNN
F 2 "" H 10763 6900 50  0001 C CNN
F 3 "~" H 10725 7050 50  0001 C CNN
	1    10725 7050
	1    0    0    -1  
$EndComp
$Comp
L Device:C C22
U 1 1 5C902BE0
P 11075 7050
F 0 "C22" H 11190 7096 50  0000 L CNN
F 1 "C" H 11190 7005 50  0000 L CNN
F 2 "" H 11113 6900 50  0001 C CNN
F 3 "~" H 11075 7050 50  0001 C CNN
	1    11075 7050
	1    0    0    -1  
$EndComp
Text GLabel 4050 2900 2    50   Input ~ 0
DEC46
Text GLabel 11775 6800 1    50   Input ~ 0
DEC46
Wire Wire Line
	11775 6900 11775 6850
Wire Wire Line
	11775 6850 12125 6850
Wire Wire Line
	12125 6850 12125 6900
Connection ~ 11775 6850
Wire Wire Line
	11775 6850 11775 6800
Wire Wire Line
	12125 6850 12475 6850
Wire Wire Line
	12475 6850 12475 6900
Connection ~ 12125 6850
Wire Wire Line
	9675 7250 10025 7250
Wire Wire Line
	10025 7250 10025 7200
Connection ~ 9675 7250
Wire Wire Line
	10025 7250 10375 7250
Wire Wire Line
	10375 7250 10375 7200
Connection ~ 10025 7250
Wire Wire Line
	10375 7250 10725 7250
Wire Wire Line
	10725 7250 10725 7200
Connection ~ 10375 7250
$Comp
L Device:C C8
U 1 1 5C9226CD
P 2600 3500
F 0 "C8" V 2348 3500 50  0000 C CNN
F 1 "C" V 2439 3500 50  0000 C CNN
F 2 "" H 2638 3350 50  0001 C CNN
F 3 "~" H 2600 3500 50  0001 C CNN
	1    2600 3500
	0    1    1    0   
$EndComp
Wire Wire Line
	2750 3500 2800 3500
Wire Wire Line
	2750 3100 2900 3100
Wire Wire Line
	2450 3500 2350 3500
Wire Wire Line
	2350 3500 2350 3100
Wire Wire Line
	2450 3100 2350 3100
Connection ~ 2350 3100
Wire Wire Line
	2350 1900 2350 2050
Wire Wire Line
	3100 2900 3100 3550
Wire Wire Line
	3300 3550 3300 2900
Connection ~ 3300 2900
Wire Wire Line
	3300 2900 3100 2900
$Comp
L Device:C C5
U 1 1 5C96B0D8
P 2600 2300
F 0 "C5" V 2348 2300 50  0000 C CNN
F 1 "C" V 2439 2300 50  0000 C CNN
F 2 "" H 2638 2150 50  0001 C CNN
F 3 "~" H 2600 2300 50  0001 C CNN
	1    2600 2300
	0    1    1    0   
$EndComp
$Comp
L Device:C C6
U 1 1 5C96B0DE
P 2600 2700
F 0 "C6" V 2348 2700 50  0000 C CNN
F 1 "C" V 2439 2700 50  0000 C CNN
F 2 "" H 2638 2550 50  0001 C CNN
F 3 "~" H 2600 2700 50  0001 C CNN
	1    2600 2700
	0    1    1    0   
$EndComp
Wire Wire Line
	2900 3550 2900 3100
Wire Wire Line
	2750 2700 3000 2700
Wire Wire Line
	3000 2700 3000 3550
Wire Wire Line
	3200 3550 3200 2300
Wire Wire Line
	3200 2300 2750 2300
Wire Wire Line
	3400 3150 3400 2950
Wire Wire Line
	3400 2950 2350 2950
Connection ~ 2350 2950
Wire Wire Line
	2350 2950 2350 3100
Wire Wire Line
	2450 2300 2350 2300
Connection ~ 2350 2300
Wire Wire Line
	2350 2300 2350 2700
Wire Wire Line
	2450 2700 2350 2700
Connection ~ 2350 2700
Wire Wire Line
	2350 2700 2350 2950
Wire Wire Line
	10025 6850 10375 6850
Wire Wire Line
	10375 6850 10375 6900
Connection ~ 10025 6850
Wire Wire Line
	10725 7250 11075 7250
Wire Wire Line
	11075 7250 11075 7200
Connection ~ 10725 7250
Wire Wire Line
	3600 9200 3700 9200
Wire Wire Line
	3700 9200 3700 9150
Wire Wire Line
	3600 9200 3600 9150
$Comp
L Device:C C4
U 1 1 5C9A66E6
P 2200 4800
F 0 "C4" H 2315 4846 50  0000 L CNN
F 1 "C" H 2315 4755 50  0000 L CNN
F 2 "" H 2238 4650 50  0001 C CNN
F 3 "~" H 2200 4800 50  0001 C CNN
	1    2200 4800
	1    0    0    -1  
$EndComp
Wire Wire Line
	2200 4650 2200 4550
Wire Wire Line
	2200 4550 2300 4550
$Comp
L Device:L_Small L1
U 1 1 5C9AB8CD
P 2000 4550
F 0 "L1" V 2185 4550 50  0000 C CNN
F 1 "L_Small" V 2094 4550 50  0000 C CNN
F 2 "" H 2000 4550 50  0001 C CNN
F 3 "~" H 2000 4550 50  0001 C CNN
	1    2000 4550
	0    -1   -1   0   
$EndComp
Wire Wire Line
	2100 4550 2200 4550
Connection ~ 2200 4550
$Comp
L Device:C C3
U 1 1 5C9B0BEA
P 1800 4800
F 0 "C3" H 1915 4846 50  0000 L CNN
F 1 "C" H 1915 4755 50  0000 L CNN
F 2 "" H 1838 4650 50  0001 C CNN
F 3 "~" H 1800 4800 50  0001 C CNN
	1    1800 4800
	1    0    0    -1  
$EndComp
Wire Wire Line
	1800 4650 1800 4550
Wire Wire Line
	1800 4550 1900 4550
$Comp
L power:GND #PWR01
U 1 1 5C9B6189
P 2200 5050
F 0 "#PWR01" H 2200 4800 50  0001 C CNN
F 1 "GND" H 2205 4877 50  0000 C CNN
F 2 "" H 2200 5050 50  0001 C CNN
F 3 "" H 2200 5050 50  0001 C CNN
	1    2200 5050
	1    0    0    -1  
$EndComp
Wire Wire Line
	2200 5050 2200 5000
Wire Wire Line
	2200 5000 1800 5000
Wire Wire Line
	1800 5000 1800 4950
Connection ~ 2200 5000
Wire Wire Line
	2200 5000 2200 4950
$Comp
L Device:Antenna AE1
U 1 1 5C9C1286
P 1400 4250
F 0 "AE1" H 1480 4241 50  0000 L CNN
F 1 "Antenna" H 1480 4150 50  0000 L CNN
F 2 "" H 1400 4250 50  0001 C CNN
F 3 "~" H 1400 4250 50  0001 C CNN
	1    1400 4250
	1    0    0    -1  
$EndComp
Wire Wire Line
	1400 4450 1400 4550
Wire Wire Line
	1400 4550 1800 4550
Connection ~ 1800 4550
$Comp
L Device:Crystal Y1
U 1 1 5C9C743C
P 2050 6350
F 0 "Y1" V 2004 6481 50  0000 L CNN
F 1 "Crystal" V 2095 6481 50  0000 L CNN
F 2 "" H 2050 6350 50  0001 C CNN
F 3 "~" H 2050 6350 50  0001 C CNN
	1    2050 6350
	0    1    1    0   
$EndComp
Wire Wire Line
	2050 6500 2050 6550
Wire Wire Line
	2050 6550 2300 6550
Wire Wire Line
	2050 6200 2050 6150
Wire Wire Line
	2050 6150 2300 6150
$Comp
L Device:C C1
U 1 1 5C9D3C4C
P 1700 6150
F 0 "C1" V 1448 6150 50  0000 C CNN
F 1 "C" V 1539 6150 50  0000 C CNN
F 2 "" H 1738 6000 50  0001 C CNN
F 3 "~" H 1700 6150 50  0001 C CNN
	1    1700 6150
	0    1    1    0   
$EndComp
$Comp
L Device:C C2
U 1 1 5C9D3D25
P 1700 6550
F 0 "C2" V 1448 6550 50  0000 C CNN
F 1 "C" V 1539 6550 50  0000 C CNN
F 2 "" H 1738 6400 50  0001 C CNN
F 3 "~" H 1700 6550 50  0001 C CNN
	1    1700 6550
	0    1    1    0   
$EndComp
Wire Wire Line
	1850 6150 2050 6150
Connection ~ 2050 6150
Wire Wire Line
	2050 6550 1850 6550
Connection ~ 2050 6550
Wire Wire Line
	1550 6550 1450 6550
Wire Wire Line
	1450 6550 1450 6150
Wire Wire Line
	1450 5000 1800 5000
Connection ~ 1800 5000
Wire Wire Line
	1550 6150 1450 6150
Connection ~ 1450 6150
Wire Wire Line
	1450 6150 1450 5000
$Comp
L Device:Crystal Y2
U 1 1 5C9EEAC5
P 5200 3550
F 0 "Y2" V 5154 3681 50  0000 L CNN
F 1 "Crystal" V 5245 3681 50  0000 L CNN
F 2 "" H 5200 3550 50  0001 C CNN
F 3 "~" H 5200 3550 50  0001 C CNN
	1    5200 3550
	-1   0    0    1   
$EndComp
Wire Wire Line
	5050 3550 5000 3550
Wire Wire Line
	5350 3550 5400 3550
$Comp
L Device:C C11
U 1 1 5C9EEACF
P 5400 3200
F 0 "C11" V 5148 3200 50  0000 C CNN
F 1 "C" V 5239 3200 50  0000 C CNN
F 2 "" H 5438 3050 50  0001 C CNN
F 3 "~" H 5400 3200 50  0001 C CNN
	1    5400 3200
	-1   0    0    1   
$EndComp
$Comp
L Device:C C10
U 1 1 5C9EEAD5
P 5000 3200
F 0 "C10" V 4748 3200 50  0000 C CNN
F 1 "C" V 4839 3200 50  0000 C CNN
F 2 "" H 5038 3050 50  0001 C CNN
F 3 "~" H 5000 3200 50  0001 C CNN
	1    5000 3200
	-1   0    0    1   
$EndComp
Wire Wire Line
	5400 3350 5400 3550
Connection ~ 5400 3550
Wire Wire Line
	5000 3550 5000 3350
Connection ~ 5000 3550
Wire Wire Line
	5000 3050 5000 2950
Wire Wire Line
	5000 2950 5400 2950
Wire Wire Line
	5400 3050 5400 2950
Wire Wire Line
	4900 3850 5000 3850
Wire Wire Line
	5000 3550 5000 3850
Wire Wire Line
	5400 3550 5400 3950
Wire Wire Line
	4900 3950 5400 3950
Wire Wire Line
	2350 2050 5000 2050
Wire Wire Line
	5000 2050 5000 2950
Connection ~ 2350 2050
Wire Wire Line
	2350 2050 2350 2300
Connection ~ 5000 2950
Text GLabel 7200 5750 2    50   Input ~ 0
QSPI_CLK
Text GLabel 7200 5850 2    50   Input ~ 0
QSPI_IO
Text GLabel 7200 6050 2    50   Input ~ 0
QSPI_IO
Text GLabel 7200 5950 2    50   Input ~ 0
QSPI_IO
Text GLabel 5275 7050 2    50   Input ~ 0
QSPI_IO
$Comp
L Connector_Generic:Conn_01x03 J4
U 1 1 5CAB145F
P 9900 950
F 0 "J4" H 9850 1200 50  0000 L CNN
F 1 "Conn_01x03" V 10000 700 50  0000 L CNN
F 2 "" H 9900 950 50  0001 C CNN
F 3 "~" H 9900 950 50  0001 C CNN
	1    9900 950 
	1    0    0    -1  
$EndComp
Text GLabel 9600 850  0    50   Input ~ 0
VBAT+
Text GLabel 9600 1050 0    50   Input ~ 0
VBAT-
Text GLabel 9600 950  0    50   Input ~ 0
VBAT_T
Wire Wire Line
	9600 850  9700 850 
Wire Wire Line
	9600 950  9700 950 
Wire Wire Line
	9600 1050 9650 1050
Wire Notes Line
	9250 650  10050 650 
$Comp
L Device:C C23
U 1 1 5CAEC3F0
P 11425 7050
F 0 "C23" H 11540 7096 50  0000 L CNN
F 1 "C" H 11540 7005 50  0000 L CNN
F 2 "" H 11463 6900 50  0001 C CNN
F 3 "~" H 11425 7050 50  0001 C CNN
	1    11425 7050
	1    0    0    -1  
$EndComp
$Comp
L Device:C C24
U 1 1 5CAEC3F6
P 11775 7050
F 0 "C24" H 11890 7096 50  0000 L CNN
F 1 "C" H 11890 7005 50  0000 L CNN
F 2 "" H 11813 6900 50  0001 C CNN
F 3 "~" H 11775 7050 50  0001 C CNN
	1    11775 7050
	1    0    0    -1  
$EndComp
$Comp
L Device:C C28
U 1 1 5CAEC3FC
P 12125 7050
F 0 "C28" H 12240 7096 50  0000 L CNN
F 1 "C" H 12240 7005 50  0000 L CNN
F 2 "" H 12163 6900 50  0001 C CNN
F 3 "~" H 12125 7050 50  0001 C CNN
	1    12125 7050
	1    0    0    -1  
$EndComp
$Comp
L Device:C C29
U 1 1 5CAEC402
P 12475 7050
F 0 "C29" H 12590 7096 50  0000 L CNN
F 1 "C" H 12590 7005 50  0000 L CNN
F 2 "" H 12513 6900 50  0001 C CNN
F 3 "~" H 12475 7050 50  0001 C CNN
	1    12475 7050
	1    0    0    -1  
$EndComp
Wire Wire Line
	10375 6850 10725 6850
Wire Wire Line
	10725 6850 10725 6900
Connection ~ 10375 6850
Wire Wire Line
	11075 7250 11425 7250
Wire Wire Line
	11425 7250 11425 7200
Connection ~ 11075 7250
Wire Wire Line
	11425 7250 11775 7250
Wire Wire Line
	11775 7250 11775 7200
Connection ~ 11425 7250
Wire Wire Line
	11775 7250 12125 7250
Wire Wire Line
	12125 7250 12125 7200
Connection ~ 11775 7250
Wire Wire Line
	12125 7250 12475 7250
Wire Wire Line
	12475 7250 12475 7200
Connection ~ 12125 7250
Wire Wire Line
	3800 2700 3800 3550
Wire Wire Line
	13300 1600 13400 1600
Wire Wire Line
	13400 1550 13400 1600
$Comp
L schematic:USB3751 U7
U 1 1 5C8BFE28
P 14850 1750
F 0 "U7" H 15200 1250 50  0000 L CNN
F 1 "USB3751" H 14675 1650 50  0000 L CNN
F 2 "MODULE" H 14850 1750 50  0001 C CNN
F 3 "DOCUMENTATION" H 14850 1750 50  0001 C CNN
	1    14850 1750
	0    -1   1    0   
$EndComp
Wire Wire Line
	13400 2300 13400 2175
Connection ~ 13400 1600
Wire Wire Line
	14900 950  14900 1000
Wire Wire Line
	14800 1000 14800 950 
Connection ~ 14800 950 
Wire Wire Line
	14800 950  14900 950 
Wire Wire Line
	13700 1150 14000 1150
Wire Wire Line
	14000 1150 14000 1700
Wire Wire Line
	14000 1700 14100 1700
Wire Wire Line
	14100 1800 13875 1800
Wire Wire Line
	13875 1800 13875 1250
Wire Wire Line
	13875 1250 13700 1250
Wire Wire Line
	13800 1600 14100 1600
Wire Wire Line
	14900 950  15000 950 
Wire Wire Line
	15000 950  15000 1000
Connection ~ 14900 950 
Wire Wire Line
	14700 1000 14700 875 
Wire Wire Line
	15000 2500 15000 2550
Wire Wire Line
	15000 2550 15150 2550
Wire Wire Line
	15150 2550 15150 2500
Wire Wire Line
	14900 2500 14900 2550
Wire Wire Line
	14900 2550 15000 2550
Connection ~ 15000 2550
Wire Wire Line
	14800 2500 14800 2550
Wire Wire Line
	14800 2550 14900 2550
Connection ~ 14900 2550
$Comp
L power:GND #PWR027
U 1 1 5CACBDD5
P 15700 2000
F 0 "#PWR027" H 15700 1750 50  0001 C CNN
F 1 "GND" H 15705 1827 50  0000 C CNN
F 2 "" H 15700 2000 50  0001 C CNN
F 3 "" H 15700 2000 50  0001 C CNN
	1    15700 2000
	1    0    0    -1  
$EndComp
Wire Wire Line
	15600 1900 15700 1900
Wire Wire Line
	15700 1900 15700 2000
Text GLabel 15650 1600 2    50   Input ~ 0
SDA
Text GLabel 15650 1700 2    50   Input ~ 0
SCL
Wire Wire Line
	15600 1600 15650 1600
Wire Wire Line
	15600 1700 15650 1700
Text GLabel 15650 1800 2    50   Input ~ 0
INT1
Wire Wire Line
	15600 1800 15650 1800
$Comp
L Device:C C34
U 1 1 5CB4FBF7
P 14225 1200
F 0 "C34" H 14340 1246 50  0000 L CNN
F 1 "C" H 14340 1155 50  0000 L CNN
F 2 "" H 14263 1050 50  0001 C CNN
F 3 "~" H 14225 1200 50  0001 C CNN
	1    14225 1200
	1    0    0    -1  
$EndComp
Wire Wire Line
	14225 1050 14225 950 
Wire Wire Line
	14225 950  14800 950 
Wire Wire Line
	8975 6850 9325 6850
Wire Wire Line
	9325 6850 9325 6900
Connection ~ 8975 6850
Wire Wire Line
	10725 6850 11075 6850
Wire Wire Line
	11075 6850 11075 6900
Connection ~ 10725 6850
$Comp
L schematic:LC709203F U4
U 1 1 5C8C1F49
P 14175 3225
F 0 "U4" H 14175 3640 50  0000 C CNN
F 1 "LC709203F" H 14175 3549 50  0000 C CNN
F 2 "MODULE" H 14175 3225 50  0001 C CNN
F 3 "DOCUMENTATION" H 14175 3225 50  0001 C CNN
	1    14175 3225
	1    0    0    -1  
$EndComp
Text GLabel 14975 3175 2    50   Input ~ 0
SDA
Text GLabel 14975 3075 2    50   Input ~ 0
SCL
Text GLabel 13300 3375 0    50   Input ~ 0
INT2
Wire Wire Line
	13300 3375 13425 3375
Wire Wire Line
	14925 3075 14975 3075
Wire Wire Line
	14975 3175 14925 3175
Wire Wire Line
	13300 3275 13425 3275
$Comp
L power:GND #PWR020
U 1 1 5C912C75
P 13350 3475
F 0 "#PWR020" H 13350 3225 50  0001 C CNN
F 1 "GND" H 13355 3302 50  0000 C CNN
F 2 "" H 13350 3475 50  0001 C CNN
F 3 "" H 13350 3475 50  0001 C CNN
	1    13350 3475
	1    0    0    -1  
$EndComp
Wire Wire Line
	13350 3175 13425 3175
Wire Wire Line
	13350 3175 13350 3475
Wire Wire Line
	13350 3175 13350 3075
Wire Wire Line
	13350 3075 13425 3075
Connection ~ 13350 3175
Text GLabel 13300 3275 0    50   Input ~ 0
VBAT+
$Comp
L power:GND #PWR015
U 1 1 5C94F381
P 9650 1125
F 0 "#PWR015" H 9650 875 50  0001 C CNN
F 1 "GND" H 9655 952 50  0000 C CNN
F 2 "" H 9650 1125 50  0001 C CNN
F 3 "" H 9650 1125 50  0001 C CNN
	1    9650 1125
	1    0    0    -1  
$EndComp
Wire Wire Line
	9650 1125 9650 1050
Connection ~ 9650 1050
Wire Wire Line
	9650 1050 9700 1050
Wire Notes Line
	9250 1375 10050 1375
Wire Notes Line
	10050 650  10050 1375
Wire Notes Line
	9250 650  9250 1375
Text GLabel 15600 3275 2    50   Input ~ 0
VBAT_T
$Comp
L Device:R R19
U 1 1 5C974415
P 15350 3275
F 0 "R19" V 15250 3275 50  0000 C CNN
F 1 "R" V 15350 3275 50  0000 C CNN
F 2 "" V 15280 3275 50  0001 C CNN
F 3 "~" H 15350 3275 50  0001 C CNN
	1    15350 3275
	0    1    1    0   
$EndComp
$Comp
L Device:R R20
U 1 1 5C9746F5
P 15350 3375
F 0 "R20" V 15450 3375 50  0000 C CNN
F 1 "R" V 15350 3375 50  0000 C CNN
F 2 "" V 15280 3375 50  0001 C CNN
F 3 "~" H 15350 3375 50  0001 C CNN
	1    15350 3375
	0    1    1    0   
$EndComp
Wire Wire Line
	14925 3275 15200 3275
Wire Wire Line
	14925 3375 15200 3375
Wire Wire Line
	15500 3275 15550 3275
Wire Wire Line
	15500 3375 15550 3375
Wire Wire Line
	15550 3375 15550 3275
Connection ~ 15550 3275
Wire Wire Line
	15550 3275 15600 3275
Wire Notes Line
	12975 2750 15925 2750
Wire Notes Line
	15925 2750 15925 3725
Wire Notes Line
	15925 3725 12975 3725
Wire Notes Line
	12975 2750 12975 3725
Wire Wire Line
	3300 2900 4050 2900
Wire Wire Line
	3600 3150 3600 3200
Wire Wire Line
	3600 3200 3700 3200
Wire Wire Line
	3700 3200 3700 3550
Connection ~ 3600 3200
Wire Wire Line
	3600 3200 3600 3550
$Comp
L Amplifier_Current:INA181 U3
U 1 1 5CA76C9A
P 11075 3225
F 0 "U3" H 11225 3100 50  0000 L CNN
F 1 "INA181" H 11075 3400 50  0000 L CNN
F 2 "Package_TO_SOT_SMD:SOT-23-6" H 11125 3275 50  0001 C CNN
F 3 "http://www.ti.com/lit/ds/symlink/ina181.pdf" H 11225 3375 50  0001 C CNN
	1    11075 3225
	1    0    0    -1  
$EndComp
$Comp
L Device:R R9
U 1 1 5CAA933F
P 10250 4025
F 0 "R9" V 10043 4025 50  0000 C CNN
F 1 "R" V 10134 4025 50  0000 C CNN
F 2 "" V 10180 4025 50  0001 C CNN
F 3 "~" H 10250 4025 50  0001 C CNN
	1    10250 4025
	0    1    1    0   
$EndComp
Connection ~ 14225 950 
Wire Wire Line
	13400 2175 14225 2175
Wire Wire Line
	14225 2175 14225 1350
Connection ~ 13400 2175
Wire Wire Line
	13400 2175 13400 1600
Text GLabel 11550 3225 2    50   Input ~ 0
INA1
Wire Wire Line
	11375 3225 11550 3225
Text GLabel 4950 4050 2    50   Input ~ 0
INA1
Wire Wire Line
	4900 4050 4950 4050
$Comp
L Device:LED D3
U 1 1 5CCA58C1
P 6300 4550
F 0 "D3" V 6338 4433 50  0000 R CNN
F 1 "LED" V 6247 4433 50  0000 R CNN
F 2 "" H 6300 4550 50  0001 C CNN
F 3 "~" H 6300 4550 50  0001 C CNN
	1    6300 4550
	0    1    1    0   
$EndComp
$Comp
L Device:LED D2
U 1 1 5CCA5C3D
P 5950 4550
F 0 "D2" V 5988 4433 50  0000 R CNN
F 1 "LED" V 5897 4433 50  0000 R CNN
F 2 "" H 5950 4550 50  0001 C CNN
F 3 "~" H 5950 4550 50  0001 C CNN
	1    5950 4550
	0    1    1    0   
$EndComp
$Comp
L Device:LED D1
U 1 1 5CCA5DC2
P 5600 4550
F 0 "D1" V 5638 4433 50  0000 R CNN
F 1 "LED" V 5547 4433 50  0000 R CNN
F 2 "" H 5600 4550 50  0001 C CNN
F 3 "~" H 5600 4550 50  0001 C CNN
	1    5600 4550
	0    1    1    0   
$EndComp
$Comp
L Device:R R3
U 1 1 5CCA5F8F
P 6300 4150
F 0 "R3" H 6370 4196 50  0000 L CNN
F 1 "R" H 6370 4105 50  0000 L CNN
F 2 "" V 6230 4150 50  0001 C CNN
F 3 "~" H 6300 4150 50  0001 C CNN
	1    6300 4150
	-1   0    0    1   
$EndComp
$Comp
L Device:R R2
U 1 1 5CCA6075
P 5950 4150
F 0 "R2" H 6020 4196 50  0000 L CNN
F 1 "R" H 6020 4105 50  0000 L CNN
F 2 "" V 5880 4150 50  0001 C CNN
F 3 "~" H 5950 4150 50  0001 C CNN
	1    5950 4150
	-1   0    0    1   
$EndComp
$Comp
L Device:R R1
U 1 1 5CCA6153
P 5600 4150
F 0 "R1" H 5670 4196 50  0000 L CNN
F 1 "R" H 5670 4105 50  0000 L CNN
F 2 "" V 5530 4150 50  0001 C CNN
F 3 "~" H 5600 4150 50  0001 C CNN
	1    5600 4150
	-1   0    0    1   
$EndComp
Wire Wire Line
	6300 4300 6300 4400
Wire Wire Line
	5950 4300 5950 4400
Wire Wire Line
	5600 4300 5600 4400
$Comp
L Device:R R4
U 1 1 5CD98E50
P 8400 950
F 0 "R4" V 8300 950 50  0000 C CNN
F 1 "R" V 8400 950 50  0000 C CNN
F 2 "" V 8330 950 50  0001 C CNN
F 3 "~" H 8400 950 50  0001 C CNN
	1    8400 950 
	0    1    1    0   
$EndComp
$Comp
L Device:R R5
U 1 1 5CD991BC
P 8400 1150
F 0 "R5" V 8300 1150 50  0000 C CNN
F 1 "R" V 8400 1150 50  0000 C CNN
F 2 "" V 8330 1150 50  0001 C CNN
F 3 "~" H 8400 1150 50  0001 C CNN
	1    8400 1150
	0    1    1    0   
$EndComp
$Comp
L Device:R R6
U 1 1 5CDA9355
P 8400 1350
F 0 "R6" V 8300 1350 50  0000 C CNN
F 1 "R" V 8400 1350 50  0000 C CNN
F 2 "" V 8330 1350 50  0001 C CNN
F 3 "~" H 8400 1350 50  0001 C CNN
	1    8400 1350
	0    1    1    0   
$EndComp
$Comp
L Device:R R7
U 1 1 5CDA935B
P 8400 1550
F 0 "R7" V 8300 1550 50  0000 C CNN
F 1 "R" V 8400 1550 50  0000 C CNN
F 2 "" V 8330 1550 50  0001 C CNN
F 3 "~" H 8400 1550 50  0001 C CNN
	1    8400 1550
	0    1    1    0   
$EndComp
$Comp
L power:VDD #PWR011
U 1 1 5CDB9942
P 8150 850
F 0 "#PWR011" H 8150 700 50  0001 C CNN
F 1 "VDD" H 8167 1023 50  0000 C CNN
F 2 "" H 8150 850 50  0001 C CNN
F 3 "" H 8150 850 50  0001 C CNN
	1    8150 850 
	1    0    0    -1  
$EndComp
Wire Wire Line
	8150 850  8150 950 
Wire Wire Line
	8150 950  8250 950 
Wire Wire Line
	8250 1150 8150 1150
Wire Wire Line
	8150 1150 8150 950 
Connection ~ 8150 950 
Wire Wire Line
	8150 1150 8150 1350
Wire Wire Line
	8150 1350 8250 1350
Connection ~ 8150 1150
Wire Wire Line
	8150 1350 8150 1550
Wire Wire Line
	8150 1550 8250 1550
Connection ~ 8150 1350
Text GLabel 8600 950  2    50   Input ~ 0
SDA
Text GLabel 8600 1150 2    50   Input ~ 0
SCL
Text GLabel 8600 1350 2    50   Input ~ 0
INT1
Text GLabel 8600 1550 2    50   Input ~ 0
INT2
Wire Wire Line
	8550 950  8600 950 
Wire Wire Line
	8550 1150 8600 1150
Wire Wire Line
	8550 1350 8600 1350
Wire Wire Line
	8550 1550 8600 1550
Text GLabel 4950 4150 2    50   Input ~ 0
SDA
Text GLabel 4950 4250 2    50   Input ~ 0
SCL
Text GLabel 4950 4350 2    50   Input ~ 0
INT1
Text GLabel 4950 4450 2    50   Input ~ 0
INT2
Wire Wire Line
	4900 4150 4950 4150
Wire Wire Line
	4900 4250 4950 4250
Wire Wire Line
	4900 4350 4950 4350
Wire Wire Line
	4900 4450 4950 4450
Wire Wire Line
	10525 1025 10825 1025
Wire Wire Line
	10525 1025 10525 1175
Connection ~ 10825 1025
$Comp
L Battery_Management:BQ25601 U2
U 1 1 5CF43E31
P 11025 4925
F 0 "U2" H 11025 6092 50  0000 C CNN
F 1 "BQ25601" H 11025 6001 50  0000 C CNN
F 2 "Package_DFN_QFN:WQFN-24-1EP_4x4mm_P0.5mm_EP2.7x2.7mm_ThermalVias" H 11025 6075 50  0001 C CNN
F 3 "http://www.ti.com/lit/ds/symlink/bq25601.pdf" H 11025 6325 50  0001 C CNN
	1    11025 4925
	1    0    0    -1  
$EndComp
$Comp
L power:GND #PWR018
U 1 1 5CF443A1
P 11025 6025
F 0 "#PWR018" H 11025 5775 50  0001 C CNN
F 1 "GND" H 11030 5852 50  0000 C CNN
F 2 "" H 11025 6025 50  0001 C CNN
F 3 "" H 11025 6025 50  0001 C CNN
	1    11025 6025
	1    0    0    -1  
$EndComp
Wire Wire Line
	11025 6025 11025 5975
Text GLabel 10475 4825 0    50   Input ~ 0
SDA
Text GLabel 10475 4925 0    50   Input ~ 0
SCL
Wire Wire Line
	10475 4825 10525 4825
Wire Wire Line
	10475 4925 10525 4925
Wire Wire Line
	13700 950  14225 950 
Wire Notes Line
	13100 575  15925 575 
Wire Notes Line
	15925 575  15925 2625
Wire Notes Line
	13100 575  13100 2625
Wire Notes Line
	13100 2625 15925 2625
$Comp
L Connector:Barrel_Jack J6
U 1 1 5D18D8EE
P 13225 5575
F 0 "J6" H 13280 5900 50  0000 C CNN
F 1 "Barrel_Jack" H 13280 5809 50  0000 C CNN
F 2 "" H 13275 5535 50  0001 C CNN
F 3 "~" H 13275 5535 50  0001 C CNN
	1    13225 5575
	1    0    0    -1  
$EndComp
$Comp
L power:VBUS #PWR013
U 1 1 5D19F57E
P 9400 3850
F 0 "#PWR013" H 9400 3700 50  0001 C CNN
F 1 "VBUS" H 9415 4023 50  0000 C CNN
F 2 "" H 9400 3850 50  0001 C CNN
F 3 "" H 9400 3850 50  0001 C CNN
	1    9400 3850
	1    0    0    -1  
$EndComp
Wire Wire Line
	10400 4025 10450 4025
Wire Wire Line
	10525 4125 10450 4125
Wire Wire Line
	10450 4125 10450 4025
Connection ~ 10450 4025
Wire Wire Line
	10450 4025 10525 4025
Wire Wire Line
	10450 4025 10450 3325
Wire Wire Line
	10450 3325 10775 3325
Wire Wire Line
	10100 4025 10025 4025
Wire Wire Line
	10025 4025 10025 3125
Wire Wire Line
	10025 3125 10775 3125
$Comp
L Device:D_Schottky D4
U 1 1 5D254201
P 9725 4025
F 0 "D4" H 9725 3809 50  0000 C CNN
F 1 "D_Schottky" H 9725 3900 50  0000 C CNN
F 2 "" H 9725 4025 50  0001 C CNN
F 3 "~" H 9725 4025 50  0001 C CNN
	1    9725 4025
	-1   0    0    1   
$EndComp
Wire Wire Line
	9400 3850 9400 4025
Wire Wire Line
	9400 4025 9575 4025
Wire Wire Line
	9875 4025 10025 4025
Connection ~ 10025 4025
Wire Wire Line
	10025 4025 10025 4375
Wire Wire Line
	11025 5975 11625 5975
Wire Wire Line
	11625 5975 11625 3625
Wire Wire Line
	11625 3625 11175 3625
Wire Wire Line
	10975 3625 10975 3525
Connection ~ 11025 5975
Wire Wire Line
	11025 5975 11025 5925
Wire Wire Line
	11175 3525 11175 3625
Connection ~ 11175 3625
Wire Wire Line
	11175 3625 10975 3625
$Comp
L Device:R R8
U 1 1 5D2DAA6D
P 8400 1750
F 0 "R8" V 8300 1750 50  0000 C CNN
F 1 "R" V 8400 1750 50  0000 C CNN
F 2 "" V 8330 1750 50  0001 C CNN
F 3 "~" H 8400 1750 50  0001 C CNN
	1    8400 1750
	0    1    1    0   
$EndComp
Wire Wire Line
	8150 1550 8150 1750
Wire Wire Line
	8150 1750 8250 1750
Text GLabel 8600 1750 2    50   Input ~ 0
INT3
Wire Wire Line
	8550 1750 8600 1750
Connection ~ 8150 1550
Text GLabel 10475 5025 0    50   Input ~ 0
INT3
Wire Wire Line
	10475 5025 10525 5025
$Comp
L Device:C C16
U 1 1 5D304A0C
P 10025 4650
F 0 "C16" H 10140 4696 50  0000 L CNN
F 1 "C" H 10140 4605 50  0000 L CNN
F 2 "" H 10063 4500 50  0001 C CNN
F 3 "~" H 10025 4650 50  0001 C CNN
	1    10025 4650
	1    0    0    -1  
$EndComp
Wire Wire Line
	10025 4500 10025 4375
Connection ~ 10025 4375
Wire Wire Line
	10025 5975 11025 5975
Wire Wire Line
	10025 4800 10025 5725
$Comp
L Device:C C18
U 1 1 5D344140
P 10275 5725
F 0 "C18" V 10023 5725 50  0000 C CNN
F 1 "C" V 10114 5725 50  0000 C CNN
F 2 "" H 10313 5575 50  0001 C CNN
F 3 "~" H 10275 5725 50  0001 C CNN
	1    10275 5725
	0    1    1    0   
$EndComp
Wire Wire Line
	10125 5725 10025 5725
Connection ~ 10025 5725
Wire Wire Line
	10025 5725 10025 5975
Wire Wire Line
	10425 5725 10525 5725
Text GLabel 4950 4650 2    50   Input ~ 0
CE
Text GLabel 4950 4550 2    50   Input ~ 0
INT3
Wire Wire Line
	4900 4550 4950 4550
Wire Wire Line
	4900 4650 4950 4650
Text GLabel 10475 5125 0    50   Input ~ 0
CE
Wire Wire Line
	10475 5125 10525 5125
Text GLabel 10475 5425 0    50   Input ~ 0
PSEL
Wire Wire Line
	10475 5425 10525 5425
Text GLabel 4950 4750 2    50   Input ~ 0
PSEL
Wire Wire Line
	4900 4750 4950 4750
$Comp
L Device:C C26
U 1 1 5D3F6278
P 11850 4325
F 0 "C26" V 11598 4325 50  0000 C CNN
F 1 "C" V 11689 4325 50  0000 C CNN
F 2 "" H 11888 4175 50  0001 C CNN
F 3 "~" H 11850 4325 50  0001 C CNN
	1    11850 4325
	0    1    1    0   
$EndComp
Wire Wire Line
	11525 4325 11700 4325
Wire Wire Line
	12000 4325 12050 4325
Wire Wire Line
	12050 4325 12050 4025
Wire Wire Line
	12050 4025 11525 4025
$Comp
L Device:L_Small L2
U 1 1 5D4240EA
P 12225 4025
F 0 "L2" V 12410 4025 50  0000 C CNN
F 1 "L_Small" V 12319 4025 50  0000 C CNN
F 2 "" H 12225 4025 50  0001 C CNN
F 3 "~" H 12225 4025 50  0001 C CNN
	1    12225 4025
	0    -1   -1   0   
$EndComp
Wire Wire Line
	12125 4025 12050 4025
Connection ~ 12050 4025
Wire Wire Line
	11525 4525 12425 4525
Wire Wire Line
	12425 4525 12425 4025
Wire Wire Line
	12425 4025 12325 4025
$Comp
L power:VDD #PWR019
U 1 1 5D46AADC
P 12425 2825
F 0 "#PWR019" H 12425 2675 50  0001 C CNN
F 1 "VDD" H 12442 2998 50  0000 C CNN
F 2 "" H 12425 2825 50  0001 C CNN
F 3 "" H 12425 2825 50  0001 C CNN
	1    12425 2825
	1    0    0    -1  
$EndComp
Wire Wire Line
	12425 4025 12425 2900
Connection ~ 12425 4025
Wire Wire Line
	10975 2925 10975 2900
Wire Wire Line
	10975 2900 12425 2900
Connection ~ 12425 2900
Wire Wire Line
	12425 2900 12425 2825
Wire Wire Line
	11075 6850 11425 6850
Wire Wire Line
	11425 6850 11425 6900
Connection ~ 11075 6850
$Comp
L Device:LED D6
U 1 1 5D4E40C9
P 12425 4750
F 0 "D6" V 12463 4633 50  0000 R CNN
F 1 "LED" V 12372 4633 50  0000 R CNN
F 2 "" H 12425 4750 50  0001 C CNN
F 3 "~" H 12425 4750 50  0001 C CNN
	1    12425 4750
	0    -1   -1   0   
$EndComp
$Comp
L Device:R R14
U 1 1 5D4E40CF
P 11975 4925
F 0 "R14" H 12045 4971 50  0000 L CNN
F 1 "R" H 12045 4880 50  0000 L CNN
F 2 "" V 11905 4925 50  0001 C CNN
F 3 "~" H 11975 4925 50  0001 C CNN
	1    11975 4925
	0    -1   -1   0   
$EndComp
Wire Wire Line
	12425 4600 12425 4525
Connection ~ 12425 4525
Wire Wire Line
	11525 4925 11825 4925
Wire Wire Line
	12125 4925 12425 4925
Wire Wire Line
	12425 4925 12425 4900
Text GLabel 11950 5125 2    50   Input ~ 0
VBAT+
$Comp
L Device:C C25
U 1 1 5D5C53B0
P 11825 5750
F 0 "C25" H 11940 5796 50  0000 L CNN
F 1 "C" H 11940 5705 50  0000 L CNN
F 2 "" H 11863 5600 50  0001 C CNN
F 3 "~" H 11825 5750 50  0001 C CNN
	1    11825 5750
	1    0    0    -1  
$EndComp
Wire Wire Line
	11625 5975 11825 5975
Wire Wire Line
	11825 5975 11825 5900
Connection ~ 11625 5975
Wire Wire Line
	11825 5600 11825 5125
Wire Wire Line
	11525 5125 11825 5125
Connection ~ 11825 5125
Wire Wire Line
	11825 5125 11950 5125
$Comp
L Device:C C27
U 1 1 5D6126C8
P 12125 5750
F 0 "C27" H 12240 5796 50  0000 L CNN
F 1 "C" H 12240 5705 50  0000 L CNN
F 2 "" H 12163 5600 50  0001 C CNN
F 3 "~" H 12125 5750 50  0001 C CNN
	1    12125 5750
	1    0    0    -1  
$EndComp
Wire Wire Line
	12125 5325 12125 5600
Wire Wire Line
	11825 5975 12125 5975
Wire Wire Line
	12125 5975 12125 5900
Connection ~ 11825 5975
Wire Wire Line
	11525 5325 12125 5325
$Comp
L Device:R R15
U 1 1 5D661A42
P 12475 5475
F 0 "R15" H 12545 5521 50  0000 L CNN
F 1 "R" H 12545 5430 50  0000 L CNN
F 2 "" V 12405 5475 50  0001 C CNN
F 3 "~" H 12475 5475 50  0001 C CNN
	1    12475 5475
	1    0    0    -1  
$EndComp
$Comp
L Device:R R16
U 1 1 5D661BC2
P 12475 5825
F 0 "R16" H 12545 5871 50  0000 L CNN
F 1 "R" H 12545 5780 50  0000 L CNN
F 2 "" V 12405 5825 50  0001 C CNN
F 3 "~" H 12475 5825 50  0001 C CNN
	1    12475 5825
	1    0    0    -1  
$EndComp
Wire Wire Line
	12125 5975 12475 5975
Connection ~ 12125 5975
Wire Wire Line
	12475 5325 12125 5325
Connection ~ 12125 5325
Wire Wire Line
	12475 5675 12475 5650
Wire Wire Line
	12475 5650 11550 5650
Wire Wire Line
	11550 5650 11550 5725
Wire Wire Line
	11550 5725 11525 5725
Connection ~ 12475 5650
Wire Wire Line
	12475 5650 12475 5625
Wire Wire Line
	10025 4375 9875 4375
$Comp
L Device:D_Schottky D5
U 1 1 5D254359
P 9725 4375
F 0 "D5" H 9725 4159 50  0000 C CNN
F 1 "D_Schottky" H 9725 4250 50  0000 C CNN
F 2 "" H 9725 4375 50  0001 C CNN
F 3 "~" H 9725 4375 50  0001 C CNN
	1    9725 4375
	-1   0    0    1   
$EndComp
$Comp
L power:VAA #PWR014
U 1 1 5C8D4289
P 9400 4250
F 0 "#PWR014" H 9400 4100 50  0001 C CNN
F 1 "VAA" H 9417 4423 50  0000 C CNN
F 2 "" H 9400 4250 50  0001 C CNN
F 3 "" H 9400 4250 50  0001 C CNN
	1    9400 4250
	1    0    0    -1  
$EndComp
Wire Wire Line
	9400 4250 9400 4375
Wire Wire Line
	9400 4375 9575 4375
Wire Notes Line
	9275 2575 12725 2575
Wire Notes Line
	12725 2575 12725 6300
Wire Notes Line
	12725 6300 9275 6300
Wire Notes Line
	9275 2575 9275 6300
$Comp
L schematic:TPS565201. U6
U 1 1 5C978B42
P 14575 5775
F 0 "U6" H 14900 5525 50  0000 C CNN
F 1 "TPS565201." H 14600 5625 50  0000 C CNN
F 2 "MODULE" H 14575 5775 50  0001 C CNN
F 3 "DOCUMENTATION" H 14575 5775 50  0001 C CNN
	1    14575 5775
	1    0    0    -1  
$EndComp
Wire Notes Line
	8025 600  8900 600 
Wire Notes Line
	8900 600  8900 1875
Wire Notes Line
	8900 1875 8025 1875
Wire Notes Line
	8025 600  8025 1875
Wire Wire Line
	13525 5675 13900 5675
$Comp
L Device:C C31
U 1 1 5CA262B3
P 13725 6400
F 0 "C31" H 13840 6446 50  0000 L CNN
F 1 "C" H 13840 6355 50  0000 L CNN
F 2 "" H 13763 6250 50  0001 C CNN
F 3 "~" H 13725 6400 50  0001 C CNN
	1    13725 6400
	0    -1   -1   0   
$EndComp
$Comp
L Device:C C30
U 1 1 5CA26449
P 13725 6075
F 0 "C30" H 13840 6121 50  0000 L CNN
F 1 "C" H 13840 6030 50  0000 L CNN
F 2 "" H 13763 5925 50  0001 C CNN
F 3 "~" H 13725 6075 50  0001 C CNN
	1    13725 6075
	0    -1   -1   0   
$EndComp
Wire Wire Line
	13525 5475 13550 5475
Wire Wire Line
	13575 6075 13550 6075
Wire Wire Line
	13550 6075 13550 5875
Wire Wire Line
	13550 6075 13550 6400
Wire Wire Line
	13550 6400 13575 6400
Connection ~ 13550 6075
Connection ~ 13550 5875
Wire Wire Line
	13550 5875 13550 5475
Wire Wire Line
	13550 5875 13925 5875
Wire Wire Line
	13875 6400 13900 6400
Wire Wire Line
	13900 6400 13900 6075
Connection ~ 13900 5675
Wire Wire Line
	13900 5675 13925 5675
Wire Wire Line
	13875 6075 13900 6075
Connection ~ 13900 6075
Wire Wire Line
	13900 6075 13900 5675
$Comp
L power:GND #PWR024
U 1 1 5CB65558
P 13900 6500
F 0 "#PWR024" H 13900 6250 50  0001 C CNN
F 1 "GND" H 13905 6327 50  0000 C CNN
F 2 "" H 13900 6500 50  0001 C CNN
F 3 "" H 13900 6500 50  0001 C CNN
	1    13900 6500
	1    0    0    -1  
$EndComp
Wire Wire Line
	13900 6500 13900 6400
Connection ~ 13900 6400
$Comp
L Device:C C35
U 1 1 5CBA1E7F
P 14575 5325
F 0 "C35" V 14323 5325 50  0000 C CNN
F 1 "C" V 14414 5325 50  0000 C CNN
F 2 "" H 14613 5175 50  0001 C CNN
F 3 "~" H 14575 5325 50  0001 C CNN
	1    14575 5325
	0    1    1    0   
$EndComp
Wire Wire Line
	15225 5675 15250 5675
Wire Wire Line
	15250 5675 15250 5325
Wire Wire Line
	15250 5325 14725 5325
Wire Wire Line
	13925 5775 13775 5775
Wire Wire Line
	13775 5775 13775 5325
Wire Wire Line
	13775 5325 14425 5325
$Comp
L Device:R R17
U 1 1 5CC1D0E7
P 14825 5475
F 0 "R17" V 14618 5475 50  0000 C CNN
F 1 "R" V 14709 5475 50  0000 C CNN
F 2 "" V 14755 5475 50  0001 C CNN
F 3 "~" H 14825 5475 50  0001 C CNN
	1    14825 5475
	0    1    1    0   
$EndComp
Wire Wire Line
	13550 5475 14675 5475
Connection ~ 13550 5475
Wire Wire Line
	14975 5475 15300 5475
Wire Wire Line
	15300 5475 15300 5775
Wire Wire Line
	15300 5775 15225 5775
$Comp
L Device:R R18
U 1 1 5CC5B1AF
P 15325 6200
F 0 "R18" H 15395 6246 50  0000 L CNN
F 1 "R" H 15395 6155 50  0000 L CNN
F 2 "" V 15255 6200 50  0001 C CNN
F 3 "~" H 15325 6200 50  0001 C CNN
	1    15325 6200
	1    0    0    -1  
$EndComp
Wire Wire Line
	13900 6400 15325 6400
Wire Wire Line
	15325 6400 15325 6350
Wire Wire Line
	15225 5875 15325 5875
Wire Wire Line
	15325 5875 15325 6050
$Comp
L power:VAA #PWR028
U 1 1 5CC9AA30
P 15825 4250
F 0 "#PWR028" H 15825 4100 50  0001 C CNN
F 1 "VAA" H 15842 4423 50  0000 C CNN
F 2 "" H 15825 4250 50  0001 C CNN
F 3 "" H 15825 4250 50  0001 C CNN
	1    15825 4250
	1    0    0    -1  
$EndComp
$Comp
L Device:R R21
U 1 1 5CC9AF7A
P 15550 5875
F 0 "R21" V 15343 5875 50  0000 C CNN
F 1 "R" V 15434 5875 50  0000 C CNN
F 2 "" V 15480 5875 50  0001 C CNN
F 3 "~" H 15550 5875 50  0001 C CNN
	1    15550 5875
	0    1    1    0   
$EndComp
Connection ~ 15325 5875
Wire Wire Line
	15325 5875 15400 5875
Wire Wire Line
	15700 5875 15825 5875
Wire Wire Line
	15825 5875 15825 4275
$Comp
L Device:L_Small L3
U 1 1 5CCFAFF8
P 13775 5150
F 0 "L3" H 13735 5104 50  0000 R CNN
F 1 "L_Small" H 13735 5195 50  0000 R CNN
F 2 "" H 13775 5150 50  0001 C CNN
F 3 "~" H 13775 5150 50  0001 C CNN
	1    13775 5150
	-1   0    0    1   
$EndComp
Wire Wire Line
	13775 5250 13775 5325
Connection ~ 13775 5325
$Comp
L Device:C C33
U 1 1 5CD1BA90
P 14150 5000
F 0 "C33" V 13898 5000 50  0000 C CNN
F 1 "C" V 13989 5000 50  0000 C CNN
F 2 "" H 14188 4850 50  0001 C CNN
F 3 "~" H 14150 5000 50  0001 C CNN
	1    14150 5000
	0    1    1    0   
$EndComp
$Comp
L Device:C C32
U 1 1 5CD1BC41
P 14150 4575
F 0 "C32" V 13898 4575 50  0000 C CNN
F 1 "C" V 13989 4575 50  0000 C CNN
F 2 "" H 14188 4425 50  0001 C CNN
F 3 "~" H 14150 4575 50  0001 C CNN
	1    14150 4575
	0    1    1    0   
$EndComp
Wire Wire Line
	15325 6400 15750 6400
Wire Wire Line
	15750 6400 15750 4575
Wire Wire Line
	15750 4575 14475 4575
Connection ~ 15325 6400
Wire Wire Line
	14300 5000 14475 5000
Wire Wire Line
	14475 5000 14475 4575
Connection ~ 14475 4575
Wire Wire Line
	14475 4575 14300 4575
Wire Wire Line
	13775 5050 13775 5000
Wire Wire Line
	13775 5000 14000 5000
Wire Wire Line
	13775 5000 13775 4575
Wire Wire Line
	13775 4575 14000 4575
Connection ~ 13775 5000
Wire Wire Line
	13775 4575 13775 4275
Wire Wire Line
	13775 4275 15825 4275
Connection ~ 13775 4575
Connection ~ 15825 4275
Wire Wire Line
	15825 4275 15825 4250
Wire Notes Line
	12975 4000 15925 4000
Wire Notes Line
	15925 4000 15925 6725
Wire Notes Line
	15925 6725 12975 6725
Wire Notes Line
	12975 4000 12975 6725
Wire Notes Line
	8475 6475 12725 6475
Wire Notes Line
	12725 6475 12725 7550
Wire Notes Line
	12725 7550 8475 7550
Wire Notes Line
	8475 6475 8475 7550
$Comp
L Connector_Generic:Conn_02x08_Odd_Even J1
U 1 1 5CEAD1EF
P 5425 8050
F 0 "J1" H 5475 8567 50  0000 C CNN
F 1 "Conn_02x08_Odd_Even" H 5475 8476 50  0000 C CNN
F 2 "" H 5425 8050 50  0001 C CNN
F 3 "~" H 5425 8050 50  0001 C CNN
	1    5425 8050
	1    0    0    -1  
$EndComp
Wire Wire Line
	3600 9275 3600 9200
Connection ~ 3600 9200
Wire Wire Line
	4900 8550 5800 8550
Wire Wire Line
	5800 8550 5800 8450
Wire Wire Line
	5800 8450 5725 8450
Wire Wire Line
	5225 8450 4900 8450
Wire Wire Line
	4900 8350 4950 8350
Wire Wire Line
	4950 8350 4950 8575
Wire Wire Line
	4950 8575 5825 8575
Wire Wire Line
	5825 8575 5825 8350
Wire Wire Line
	5825 8350 5725 8350
Wire Wire Line
	4900 8250 4975 8250
Wire Wire Line
	4975 8250 4975 8350
Wire Wire Line
	4975 8350 5225 8350
Wire Wire Line
	4900 8150 5000 8150
Wire Wire Line
	5000 8150 5000 8600
Wire Wire Line
	5000 8600 5850 8600
Wire Wire Line
	5850 8600 5850 8250
Wire Wire Line
	5850 8250 5725 8250
Wire Wire Line
	4900 8050 5025 8050
Wire Wire Line
	5025 8050 5025 8250
Wire Wire Line
	5025 8250 5225 8250
Wire Wire Line
	4900 7950 5050 7950
Wire Wire Line
	5050 7950 5050 8625
Wire Wire Line
	5050 8625 5875 8625
Wire Wire Line
	5875 8625 5875 8150
Wire Wire Line
	5875 8150 5725 8150
Wire Wire Line
	4900 7850 5075 7850
Wire Wire Line
	5075 7850 5075 8150
Wire Wire Line
	5075 8150 5225 8150
Wire Wire Line
	4900 7750 5100 7750
Wire Wire Line
	5100 7750 5100 8650
Wire Wire Line
	5100 8650 5900 8650
Wire Wire Line
	5900 8650 5900 8050
Wire Wire Line
	5725 8050 5900 8050
Wire Wire Line
	5225 8050 5125 8050
Wire Wire Line
	5125 8050 5125 7650
Wire Wire Line
	5125 7650 4900 7650
Wire Wire Line
	4900 7550 5150 7550
Wire Wire Line
	5150 7550 5150 8675
Wire Wire Line
	5150 8675 5925 8675
Wire Wire Line
	5925 8675 5925 7950
Wire Wire Line
	5925 7950 5725 7950
Wire Wire Line
	4900 7450 5175 7450
Wire Wire Line
	5175 7450 5175 7950
Wire Wire Line
	5175 7950 5225 7950
Wire Wire Line
	4900 7350 5925 7350
Wire Wire Line
	5925 7350 5925 7850
Wire Wire Line
	5925 7850 5725 7850
Wire Wire Line
	4900 7250 5200 7250
Wire Wire Line
	5200 7250 5200 7850
Wire Wire Line
	5200 7850 5225 7850
Wire Wire Line
	4900 7150 5900 7150
Wire Wire Line
	5900 7150 5900 7750
Wire Wire Line
	5900 7750 5725 7750
Wire Wire Line
	4900 7050 5225 7050
Wire Wire Line
	5225 7050 5225 7750
Wire Wire Line
	5225 7050 5275 7050
Connection ~ 5225 7050
Wire Wire Line
	4900 4850 5600 4850
Wire Wire Line
	5600 4850 5600 4700
Wire Wire Line
	4900 4950 5950 4950
Wire Wire Line
	5950 4950 5950 4700
Wire Wire Line
	4900 5050 6300 5050
Wire Wire Line
	6300 5050 6300 4700
Wire Wire Line
	5000 2050 6300 2050
Wire Wire Line
	6300 2050 6300 3775
Connection ~ 5000 2050
Wire Wire Line
	5950 4000 5950 3775
Wire Wire Line
	5950 3775 6300 3775
Connection ~ 6300 3775
Wire Wire Line
	6300 3775 6300 4000
Wire Wire Line
	5600 4000 5600 3775
Wire Wire Line
	5600 3775 5950 3775
Connection ~ 5950 3775
$Comp
L Connector_Generic:Conn_02x09_Odd_Even J2
U 1 1 5D7507B7
P 6700 5950
F 0 "J2" H 6750 6567 50  0000 C CNN
F 1 "Conn_02x09_Odd_Even" H 6750 6476 50  0000 C CNN
F 2 "" H 6700 5950 50  0001 C CNN
F 3 "~" H 6700 5950 50  0001 C CNN
	1    6700 5950
	1    0    0    -1  
$EndComp
Wire Wire Line
	4900 5150 6175 5150
Wire Wire Line
	6175 5150 6175 5550
Wire Wire Line
	6175 5550 6500 5550
Wire Wire Line
	7100 5250 7100 5550
Wire Wire Line
	7100 5550 7000 5550
Wire Wire Line
	4900 5250 7100 5250
Wire Wire Line
	4900 5350 6100 5350
Wire Wire Line
	6100 5350 6100 5650
Wire Wire Line
	6100 5650 6500 5650
Wire Wire Line
	4900 5450 7050 5450
Wire Wire Line
	7050 5450 7050 5650
Wire Wire Line
	7050 5650 7000 5650
Wire Wire Line
	4900 5550 6025 5550
Wire Wire Line
	6025 5550 6025 5750
Wire Wire Line
	6025 5750 6500 5750
Wire Wire Line
	5950 5650 5950 5400
Wire Wire Line
	5950 5400 7150 5400
Wire Wire Line
	7150 5400 7150 5750
Wire Wire Line
	7150 5750 7000 5750
Wire Wire Line
	4900 5650 5950 5650
Wire Wire Line
	7150 5750 7200 5750
Connection ~ 7150 5750
Wire Wire Line
	4900 5750 6000 5750
Wire Wire Line
	6000 5750 6000 5850
Wire Wire Line
	6000 5850 6500 5850
Wire Wire Line
	5900 5850 5900 5300
Wire Wire Line
	5900 5300 7075 5300
Wire Wire Line
	7075 5300 7075 5850
Wire Wire Line
	7075 5850 7000 5850
Wire Wire Line
	4900 5850 5900 5850
Wire Wire Line
	7075 5850 7200 5850
Connection ~ 7075 5850
Wire Wire Line
	6200 5950 6200 5350
Wire Wire Line
	6200 5350 7125 5350
Wire Wire Line
	7125 5350 7125 5950
Wire Wire Line
	7125 5950 7000 5950
Wire Wire Line
	4900 5950 6200 5950
Wire Wire Line
	7125 5950 7200 5950
Connection ~ 7125 5950
Wire Wire Line
	7200 6050 7150 6050
Wire Wire Line
	4900 6150 6300 6150
Wire Wire Line
	6300 6150 6300 5950
Wire Wire Line
	6300 5950 6500 5950
Wire Wire Line
	4900 6250 6350 6250
Wire Wire Line
	6350 6250 6350 6050
Wire Wire Line
	6350 6050 6500 6050
Wire Wire Line
	4900 6350 6400 6350
Wire Wire Line
	6400 6350 6400 6150
Wire Wire Line
	6400 6150 6500 6150
Wire Wire Line
	4900 6450 7050 6450
Wire Wire Line
	7050 6450 7050 6150
Wire Wire Line
	7050 6150 7000 6150
Wire Wire Line
	4900 6550 6450 6550
Wire Wire Line
	6450 6550 6450 6250
Wire Wire Line
	6450 6250 6500 6250
Wire Wire Line
	4900 6650 7100 6650
Wire Wire Line
	7100 6650 7100 6250
Wire Wire Line
	7100 6250 7000 6250
Wire Wire Line
	4900 6750 6500 6750
Wire Wire Line
	6500 6750 6500 6350
Wire Wire Line
	4900 6850 7125 6850
Wire Wire Line
	7125 6850 7125 6350
Wire Wire Line
	7125 6350 7000 6350
Wire Wire Line
	7150 6050 7150 6500
Wire Wire Line
	7150 6500 5550 6500
Wire Wire Line
	5550 6500 5550 6050
Wire Wire Line
	4900 6050 5550 6050
Connection ~ 7150 6050
Wire Wire Line
	7150 6050 7000 6050
$Comp
L power:VAA #PWR06
U 1 1 5DD9CEBF
P 7150 8050
F 0 "#PWR06" H 7150 7900 50  0001 C CNN
F 1 "VAA" H 7167 8223 50  0000 C CNN
F 2 "" H 7150 8050 50  0001 C CNN
F 3 "" H 7150 8050 50  0001 C CNN
	1    7150 8050
	1    0    0    -1  
$EndComp
$Comp
L power:VDD #PWR07
U 1 1 5DD9D338
P 7350 8050
F 0 "#PWR07" H 7350 7900 50  0001 C CNN
F 1 "VDD" H 7367 8223 50  0000 C CNN
F 2 "" H 7350 8050 50  0001 C CNN
F 3 "" H 7350 8050 50  0001 C CNN
	1    7350 8050
	1    0    0    -1  
$EndComp
$Comp
L power:VBUS #PWR09
U 1 1 5DDDF85B
P 7550 8050
F 0 "#PWR09" H 7550 7900 50  0001 C CNN
F 1 "VBUS" H 7565 8223 50  0000 C CNN
F 2 "" H 7550 8050 50  0001 C CNN
F 3 "" H 7550 8050 50  0001 C CNN
	1    7550 8050
	1    0    0    -1  
$EndComp
$Comp
L power:VCC #PWR022
U 1 1 5DE21E65
P 13550 5300
F 0 "#PWR022" H 13550 5150 50  0001 C CNN
F 1 "VCC" H 13567 5473 50  0000 C CNN
F 2 "" H 13550 5300 50  0001 C CNN
F 3 "" H 13550 5300 50  0001 C CNN
	1    13550 5300
	1    0    0    -1  
$EndComp
Wire Wire Line
	13550 5300 13550 5475
$Comp
L power:VCC #PWR010
U 1 1 5DE641E5
P 7750 8050
F 0 "#PWR010" H 7750 7900 50  0001 C CNN
F 1 "VCC" H 7767 8223 50  0000 C CNN
F 2 "" H 7750 8050 50  0001 C CNN
F 3 "" H 7750 8050 50  0001 C CNN
	1    7750 8050
	1    0    0    -1  
$EndComp
$Comp
L Connector_Generic:Conn_02x04_Odd_Even J3
U 1 1 5DFAEEC8
P 7500 8400
F 0 "J3" V 7504 8580 50  0000 L CNN
F 1 "Conn_02x04_Odd_Even" V 7595 8580 50  0000 L CNN
F 2 "" H 7500 8400 50  0001 C CNN
F 3 "~" H 7500 8400 50  0001 C CNN
	1    7500 8400
	0    1    1    0   
$EndComp
Wire Wire Line
	7500 8200 7500 8100
Wire Wire Line
	7500 8100 7550 8100
Wire Wire Line
	7550 8100 7550 8050
Wire Wire Line
	7400 8200 7400 8100
Wire Wire Line
	7400 8100 7350 8100
Wire Wire Line
	7350 8100 7350 8050
Wire Wire Line
	7300 8200 7300 8125
Wire Wire Line
	7300 8125 7150 8125
Wire Wire Line
	7150 8125 7150 8050
Wire Wire Line
	7600 8200 7600 8125
Wire Wire Line
	7600 8125 7750 8125
Wire Wire Line
	7750 8125 7750 8050
Wire Wire Line
	7300 8700 7300 8750
Wire Wire Line
	7300 8750 7400 8750
Wire Wire Line
	7600 8750 7600 8700
Wire Wire Line
	7500 8750 7500 8700
Connection ~ 7500 8750
Wire Wire Line
	7500 8750 7600 8750
Wire Wire Line
	7400 8700 7400 8750
Connection ~ 7400 8750
Wire Wire Line
	7400 8750 7450 8750
$Comp
L power:GND #PWR08
U 1 1 5E192EB7
P 7450 8825
F 0 "#PWR08" H 7450 8575 50  0001 C CNN
F 1 "GND" H 7455 8652 50  0000 C CNN
F 2 "" H 7450 8825 50  0001 C CNN
F 3 "" H 7450 8825 50  0001 C CNN
	1    7450 8825
	1    0    0    -1  
$EndComp
Wire Wire Line
	7450 8825 7450 8750
Connection ~ 7450 8750
Wire Wire Line
	7450 8750 7500 8750
$Comp
L schematic:MX25L3233F U5
U 1 1 5E1DBBC7
P 14400 7500
F 0 "U5" H 14400 7915 50  0000 C CNN
F 1 "MX25L3233F" H 14400 7824 50  0000 C CNN
F 2 "MODULE" H 14400 7500 50  0001 C CNN
F 3 "DOCUMENTATION" H 14400 7500 50  0001 C CNN
	1    14400 7500
	1    0    0    -1  
$EndComp
Text GLabel 13675 7450 0    50   Input ~ 0
QSPI_IO
Wire Wire Line
	13675 7450 13750 7450
Text GLabel 15125 7550 2    50   Input ~ 0
QSPI_CLK
Text GLabel 15125 7650 2    50   Input ~ 0
QSPI_IO
Text GLabel 13675 7550 0    50   Input ~ 0
QSPI_IO
Text GLabel 15125 7450 2    50   Input ~ 0
QSPI_IO
Wire Wire Line
	15050 7450 15125 7450
Wire Wire Line
	15125 7550 15050 7550
Wire Wire Line
	15125 7650 15050 7650
Wire Wire Line
	13675 7550 13750 7550
Wire Wire Line
	15050 7350 15125 7350
Wire Wire Line
	15125 7350 15125 7275
Wire Wire Line
	13650 7675 13650 7650
Wire Wire Line
	13650 7650 13750 7650
Text GLabel 7200 5650 2    50   Input ~ 0
SPI_CS
Wire Wire Line
	7050 5650 7200 5650
Connection ~ 7050 5650
Text GLabel 13675 7350 0    50   Input ~ 0
SPI_CS
Wire Wire Line
	13675 7350 13750 7350
Wire Notes Line
	13275 7000 15575 7000
Wire Notes Line
	15575 7000 15575 7925
Wire Notes Line
	15575 7925 13275 7925
Wire Notes Line
	13275 7000 13275 7925
$Comp
L power:VDD #PWR?
U 1 1 5C959A4A
P 9675 6800
F 0 "#PWR?" H 9675 6650 50  0001 C CNN
F 1 "VDD" H 9692 6973 50  0000 C CNN
F 2 "" H 9675 6800 50  0001 C CNN
F 3 "" H 9675 6800 50  0001 C CNN
	1    9675 6800
	1    0    0    -1  
$EndComp
$EndSCHEMATC
